# Blender v2.63 (sub 0) OBJ File: ''
# www.blender.org
mtllib Cara.mtl
o Mesh.001_mesh2.002_mesh2-geometry.003
v -0.034780 1.682313 0.190855
v -0.024398 1.703977 0.179662
v -0.043839 1.670012 0.154732
v -0.006434 1.681430 0.216584
v -0.001105 1.706067 0.203783
v 0.021718 1.705964 0.207622
v 0.021056 1.680672 0.219278
v 0.048044 1.678652 0.213679
v -0.039080 1.690269 0.150390
v -0.031449 1.651392 0.122887
v -0.043047 1.721061 0.146984
v -0.026868 1.733889 0.180733
v -0.049127 1.745141 0.142922
v -0.035148 1.756013 0.176388
v -0.016442 1.761522 0.191734
v -0.007357 1.819799 0.206657
v -0.038950 1.799869 0.190897
v -0.005843 1.846322 0.201386
v -0.038283 1.843164 0.193881
v -0.037310 1.871229 0.169458
v -0.049991 1.849915 0.150063
v -0.048496 1.869586 0.116345
v -0.036394 1.884639 0.132916
v -0.010591 1.898573 0.134689
v -0.001821 1.883632 0.186174
v 0.033232 1.850840 0.200745
v 0.034285 1.822583 0.209256
v 0.008779 1.767801 0.202128
v 0.005151 1.743964 0.202173
v 0.030662 1.745685 0.205495
v 0.030651 1.768963 0.202034
v 0.049866 1.765953 0.192021
v 0.051578 1.742193 0.190821
v 0.043903 1.703779 0.201385
v 0.063840 1.699402 0.174728
v 0.073038 1.676889 0.184793
v 0.075600 1.663740 0.146768
v -0.011203 1.661057 0.109338
v -0.009615 1.634850 0.104457
v 0.007503 1.653547 0.098938
v 0.001346 1.666857 0.095772
v 0.028970 1.659311 0.103443
v 0.021293 1.674423 0.098466
v 0.052759 1.668137 0.111316
v 0.049622 1.686675 0.104014
v 0.069299 1.685602 0.134565
v 0.059696 1.646778 0.118011
v 0.034483 1.632604 0.102090
v 0.011895 1.629917 0.096847
v 0.067653 1.717111 0.120235
v 0.062571 1.711298 0.096070
v 0.052282 1.697712 0.093633
v 0.036293 1.684665 0.088543
v 0.020470 1.677877 0.084403
v 0.010495 1.674747 0.081956
v 0.018775 1.673932 0.059364
v 0.005118 1.665704 0.051934
v 0.011689 1.676592 0.045998
v 0.002487 1.670727 0.039753
v -0.008981 1.665048 0.053325
v -0.011990 1.669974 0.040166
v 0.000132 1.682367 0.036883
v 0.009190 1.687114 0.041680
v 0.017672 1.692996 0.043469
v 0.025799 1.685732 0.054256
v 0.033162 1.685457 0.067961
v 0.045620 1.697296 0.070055
v 0.037044 1.698653 0.054724
v 0.026766 1.705531 0.041240
v 0.028531 1.713741 0.036393
v 0.041368 1.713067 0.047493
v 0.029820 1.729009 0.030514
v 0.045354 1.733190 0.040968
v 0.054868 1.717025 0.069812
v 0.071371 1.730643 0.089568
v 0.072075 1.734202 0.102141
v 0.072875 1.740835 0.113418
v 0.080725 1.740790 0.109226
v 0.078493 1.732666 0.096250
v 0.077528 1.754896 0.088630
v 0.063839 1.748673 0.061802
v 0.059142 1.766689 0.051885
v 0.046116 1.750330 0.037937
v 0.027312 1.746729 0.029046
v 0.003473 1.739192 0.021567
v 0.017410 1.715584 0.030747
v 0.020556 1.708023 0.036951
v 0.016670 1.708020 0.036180
v 0.013778 1.701940 0.039184
v 0.004570 1.697848 0.038640
v -0.001277 1.692995 0.038392
v -0.012127 1.683038 0.037685
v -0.023499 1.683184 0.042334
v -0.020813 1.693686 0.042960
v -0.011484 1.694865 0.038611
v -0.002022 1.696505 0.035171
v -0.001198 1.703311 0.030639
v 0.006024 1.704904 0.031981
v -0.002736 1.709415 0.030172
v 0.004328 1.708189 0.033382
v -0.004608 1.709656 0.034599
v 0.004965 1.708189 0.035632
v -0.005531 1.710314 0.028768
v 0.003280 1.708964 0.029846
v -0.006527 1.714565 0.023006
v 0.005361 1.712696 0.027722
v -0.007122 1.718893 0.020630
v -0.008395 1.724324 0.021625
v 0.004447 1.721459 0.025975
v 0.002076 1.733316 0.022702
v 0.010667 1.710846 0.031650
v 0.009274 1.708654 0.033700
v 0.011873 1.708653 0.037532
v 0.012802 1.707886 0.036365
v 0.014059 1.707747 0.036189
v 0.012105 1.706977 0.035842
v 0.010835 1.708226 0.036800
v -0.002067 1.733425 0.016740
v -0.007690 1.730051 0.019610
v -0.004365 1.732289 0.016383
v -0.009982 1.732933 0.013424
v -0.011452 1.732877 0.003887
v -0.008834 1.735719 0.004851
v -0.014607 1.736957 -0.000534
v -0.007377 1.741752 0.005435
v -0.000599 1.741067 0.015583
v -0.005284 1.747311 0.015897
v -0.012597 1.742786 0.000427
v -0.011908 1.748668 0.006466
v -0.017657 1.749724 0.005074
v -0.010638 1.759322 0.011793
v -0.002544 1.752337 0.018777
v 0.002420 1.749008 0.022288
v -0.001027 1.771288 0.025855
v 0.009759 1.764769 0.030166
v 0.005894 1.772641 0.030630
v 0.012648 1.772611 0.030706
v 0.007930 1.772833 0.031861
v 0.015525 1.779145 0.026310
v 0.014013 1.781288 0.027064
v 0.024875 1.779334 0.023410
v 0.025239 1.783071 0.024925
v 0.035902 1.779179 0.026964
v 0.036059 1.783116 0.026823
v 0.042376 1.776510 0.031287
v 0.046497 1.778280 0.034286
v 0.048199 1.785767 0.030256
v 0.052704 1.779400 0.039417
v 0.049869 1.772160 0.039344
v 0.069372 1.788600 0.061345
v 0.075558 1.790275 0.077308
v 0.080531 1.781429 0.088352
v 0.082347 1.789667 0.096320
v 0.088653 1.789556 0.094065
v 0.088458 1.795261 0.102362
v 0.084977 1.777156 0.112652
v 0.090786 1.755037 0.117189
v 0.076471 1.752072 0.149396
v 0.069381 1.730297 0.157357
v 0.067214 1.758529 0.171488
v 0.069861 1.817074 0.187985
v 0.067893 1.843718 0.183554
v 0.059867 1.881455 0.171256
v 0.030505 1.888299 0.184003
v 0.018117 1.903527 0.130551
v 0.045146 1.896606 0.121210
v 0.082901 1.866986 0.140387
v 0.093042 1.838528 0.162126
v 0.089388 1.795339 0.159864
v 0.091751 1.798738 0.142465
v 0.091274 1.824200 0.132992
v 0.083880 1.845190 0.117690
v 0.068476 1.865457 0.088057
v 0.065119 1.851453 0.069471
v 0.058968 1.829205 0.049917
v 0.050313 1.794336 0.030597
v 0.033687 1.789810 0.021336
v 0.020038 1.788823 0.020300
v 0.008982 1.782995 0.024455
v 0.002884 1.777961 0.027476
v -0.000396 1.776990 0.022272
v -0.008822 1.769211 0.017687
v -0.014136 1.770630 0.016584
v -0.013487 1.777672 0.018235
v -0.007332 1.777168 0.018132
v -0.014336 1.788277 0.013175
v -0.005786 1.787639 0.012746
v -0.005496 1.796240 0.013141
v 0.003808 1.784996 0.017586
v 0.017441 1.793464 0.015380
v 0.035580 1.811032 0.023564
v 0.033008 1.797531 0.018103
v 0.038383 1.831938 0.030068
v -0.003912 1.808040 0.015881
v -0.012693 1.808405 0.017037
v -0.010951 1.829484 0.021163
v -0.000512 1.829832 0.019926
v 0.009706 1.856170 0.030340
v 0.037922 1.857663 0.042137
v 0.042720 1.879738 0.067633
v 0.016018 1.884376 0.055835
v 0.000012 1.886756 0.058136
v -0.015398 1.885485 0.063432
v -0.034013 1.882446 0.086189
v -0.054934 1.855691 0.098502
v -0.042865 1.860515 0.061673
v -0.023313 1.857336 0.038324
v -0.006852 1.856788 0.034124
v -0.020753 1.830546 0.024822
v -0.021035 1.808644 0.020022
v -0.021667 1.796810 0.017052
v -0.013838 1.797209 0.013932
v -0.022162 1.788217 0.016707
v -0.019029 1.777580 0.020960
v -0.018440 1.769550 0.020014
v -0.020178 1.759659 0.014101
v -0.015851 1.760864 0.010917
v -0.022193 1.749031 0.008954
v -0.024730 1.743214 0.003361
v -0.023856 1.747966 0.020388
v -0.024639 1.753117 0.024121
v -0.021490 1.772010 0.030803
v -0.023307 1.777798 0.027812
v -0.023777 1.778902 0.033924
v -0.028642 1.786142 0.025433
v -0.030231 1.784379 0.033937
v -0.041548 1.790997 0.035193
v -0.041181 1.795533 0.029556
v -0.053120 1.792875 0.042329
v -0.053480 1.800584 0.039017
v -0.052369 1.814136 0.044833
v -0.050495 1.835075 0.051562
v -0.059884 1.833400 0.078658
v -0.062082 1.794764 0.131247
v -0.050966 1.829220 0.167389
v -0.048761 1.803698 0.176443
v -0.057795 1.782195 0.147179
v -0.064375 1.800655 0.139321
v -0.068714 1.795111 0.132120
v -0.073202 1.799539 0.142740
v -0.066234 1.800302 0.144293
v -0.075498 1.794082 0.155343
v -0.068829 1.794187 0.157332
v -0.074656 1.775412 0.159676
v -0.070108 1.758933 0.149893
v -0.066195 1.764422 0.141281
v -0.064656 1.786554 0.123461
v -0.064696 1.795226 0.111225
v -0.066602 1.793399 0.094227
v -0.063343 1.798348 0.058083
v -0.062194 1.789664 0.056952
v -0.053167 1.786266 0.048399
v -0.044435 1.785530 0.041774
v -0.033618 1.782970 0.038582
v -0.025362 1.773745 0.038188
v -0.029527 1.766156 0.039666
v -0.031322 1.774163 0.041340
v -0.026594 1.774052 0.040209
v -0.029848 1.775203 0.043725
v -0.044244 1.772205 0.044328
v -0.044392 1.780975 0.042756
v -0.035446 1.780944 0.038637
v -0.045053 1.781802 0.040321
v -0.053225 1.782325 0.048518
v -0.057174 1.780024 0.055360
v -0.059344 1.782016 0.059880
v -0.062436 1.783464 0.067261
v -0.060436 1.776053 0.066018
v -0.055801 1.771555 0.053839
v -0.055195 1.773912 0.053570
v -0.054278 1.775735 0.053206
v -0.044603 1.771331 0.042974
v -0.043635 1.766719 0.042321
v -0.042824 1.761109 0.044476
v -0.027662 1.750070 0.029564
v -0.029579 1.740359 0.029559
v -0.028571 1.742054 0.022347
v -0.027145 1.742450 0.010215
v -0.023772 1.737281 0.001682
v -0.019189 1.743093 -0.000298
v -0.019600 1.736455 -0.001024
v -0.014938 1.732002 0.004511
v -0.014187 1.729954 0.011658
v -0.015108 1.727976 0.018787
v -0.016727 1.729592 0.011856
v -0.018453 1.731038 0.004509
v -0.021507 1.732234 0.006099
v -0.024827 1.733349 0.007125
v -0.026519 1.736343 0.009130
v -0.027250 1.734314 0.022831
v -0.028213 1.734385 0.030025
v -0.029614 1.722661 0.034206
v -0.020012 1.724734 0.024434
v -0.021176 1.730527 0.022871
v -0.025449 1.733033 0.021482
v -0.021773 1.733349 0.016277
v -0.019047 1.730126 0.012834
v -0.014299 1.722752 0.022894
v -0.015129 1.716781 0.020335
v -0.014439 1.711376 0.023978
v -0.012821 1.708866 0.031035
v -0.012024 1.708219 0.034426
v -0.012944 1.708265 0.030612
v -0.018436 1.710146 0.037911
v -0.020229 1.710833 0.032314
v -0.021689 1.715101 0.026676
v -0.021957 1.719416 0.024222
v -0.030211 1.713951 0.036320
v -0.033256 1.712398 0.042246
v -0.039330 1.717586 0.044457
v -0.036727 1.709912 0.049015
v -0.039823 1.710162 0.051477
v -0.035456 1.694881 0.055892
v -0.033246 1.703617 0.050357
v -0.034425 1.709467 0.047830
v -0.031242 1.710089 0.043444
v -0.027650 1.710057 0.037303
v -0.026571 1.709309 0.043190
v -0.027026 1.709300 0.040915
v -0.031253 1.709720 0.046893
v -0.031812 1.710205 0.048007
v -0.033220 1.709520 0.047409
v -0.032903 1.708575 0.046638
v -0.029397 1.706161 0.040480
v -0.022131 1.710101 0.034845
v -0.023700 1.704110 0.036027
v -0.013130 1.702607 0.030670
v -0.012225 1.696541 0.035302
v -0.021376 1.697192 0.039731
v -0.025584 1.698923 0.045732
v -0.029100 1.688454 0.050539
v -0.025078 1.671650 0.046117
v -0.022107 1.666651 0.058455
v -0.012569 1.675550 0.087484
v -0.001457 1.671978 0.083436
v -0.014644 1.675679 0.107113
v -0.020109 1.679298 0.094151
v -0.030291 1.675654 0.071166
v -0.030100 1.678007 0.055618
v -0.038377 1.687972 0.069169
v -0.038716 1.687968 0.084807
v -0.047892 1.700631 0.092377
v -0.047126 1.701652 0.074796
v -0.053111 1.716402 0.070338
v -0.054638 1.720890 0.096293
v -0.058284 1.736849 0.066030
v -0.064145 1.753191 0.092752
v -0.059357 1.735257 0.121182
v -0.063632 1.759879 0.122767
v -0.062492 1.737643 0.130344
v -0.054006 1.738652 0.132631
v -0.049922 1.715287 0.123241
v -0.043101 1.701133 0.116428
v -0.031984 1.687055 0.104813
v -0.036863 1.689710 0.124603
v -0.058008 1.745688 0.142776
v -0.066176 1.745426 0.139888
v -0.062352 1.760442 0.154221
v -0.067301 1.775170 0.161105
v -0.031103 1.671683 0.123480
v -0.063304 1.771012 0.081495
v -0.054273 1.766702 0.056306
v -0.046815 1.749346 0.046972
v -0.049552 1.731811 0.049703
v -0.046745 1.716397 0.054579
v -0.059202 1.754048 0.063405
v -0.043572 1.708028 0.058122
v 0.066304 1.881014 0.108082
v 0.086637 1.740032 0.102933
v 0.088555 1.758959 0.103859
v 0.095592 1.753085 0.109823
v 0.105203 1.787703 0.111645
v 0.105189 1.769064 0.116185
v 0.099300 1.769289 0.120817
v 0.100201 1.788220 0.116457
v 0.092354 1.794704 0.105941
v 0.097777 1.793504 0.101392
v 0.039345 1.763397 0.033667
v 0.023415 1.758770 0.028457
v 0.023525 1.764348 0.026080
v 0.024989 1.768875 0.026144
v 0.025347 1.769749 0.027499
v 0.012498 1.773708 0.033485
v 0.025345 1.778514 0.025892
v 0.038537 1.772458 0.030761
v 0.039396 1.770573 0.030696
v 0.039899 1.768177 0.030696
vt 0.448699 0.525883
vt 0.426018 0.539276
vt 0.444212 0.523521
vt 0.571807 0.538621
vt 0.557779 0.520469
vt 0.562171 0.520006
vt 0.392689 0.546624
vt 0.358307 0.536873
vt 0.391055 0.538598
vt 0.802249 0.055890
vt 0.814243 0.117564
vt 0.726628 0.079166
vt 0.867362 0.030188
vt 0.880631 0.090172
vt 0.934444 0.066660
vt 0.915160 0.012036
vt 0.069659 0.066660
vt 0.088943 0.012036
vt 0.136740 0.030188
vt 0.727831 0.140792
vt 0.646672 0.072537
vt 0.768450 0.245915
vt 0.830394 0.196899
vt 0.822505 0.315607
vt 0.868882 0.272121
vt 0.912406 0.239864
vt 0.923157 0.884004
vt 0.804543 0.948282
vt 0.853663 0.952996
vt 0.853709 0.878262
vt 0.930538 0.828201
vt 0.876408 0.824776
vt 0.861809 0.761954
vt 0.812913 0.774552
vt 0.789745 0.718021
vt 0.833889 0.707262
vt 0.882132 0.681190
vt 0.927139 0.758710
vt 0.991084 0.824638
vt 0.990940 0.900979
vt 0.908436 0.961290
vt 0.962099 0.212184
vt 0.912658 0.163089
vt 0.961128 0.135807
vt 0.992167 0.182352
vt 0.944430 0.977039
vt 0.011935 0.182352
vt 0.042975 0.135807
vt 0.042004 0.212184
vt 0.091444 0.163089
vt 0.123472 0.090172
vt 0.189859 0.117564
vt 0.201853 0.055890
vt 0.282474 0.077589
vt 0.566909 0.128064
vt 0.574159 0.061658
vt 0.502051 0.120815
vt 0.502051 0.167074
vt 0.437194 0.128064
vt 0.428767 0.172219
vt 0.347568 0.140386
vt 0.341155 0.199266
vt 0.276272 0.140792
vt 0.357431 0.072537
vt 0.429943 0.061658
vt 0.502051 0.056507
vt 0.235653 0.245915
vt 0.265070 0.281408
vt 0.327433 0.252236
vt 0.380469 0.217586
vt 0.424363 0.204919
vt 0.463023 0.201327
vt 0.429276 0.248766
vt 0.465922 0.231744
vt 0.446722 0.274266
vt 0.472170 0.262223
vt 0.502051 0.228644
vt 0.502051 0.263158
vt 0.475283 0.289032
vt 0.452683 0.299950
vt 0.431471 0.316382
vt 0.412940 0.290599
vt 0.397158 0.266621
vt 0.350344 0.294896
vt 0.381253 0.315669
vt 0.410937 0.343899
vt 0.404662 0.366629
vt 0.368141 0.356413
vt 0.393177 0.406573
vt 0.352491 0.410405
vt 0.309106 0.342745
vt 0.238572 0.351908
vt 0.203668 0.340863
vt 0.181598 0.315607
vt 0.716491 0.991647
vt 0.715922 0.957163
vt 0.745660 0.967669
vt 0.209251 0.362762
vt 0.169667 0.376606
vt 0.220978 0.432563
vt 0.284283 0.432821
vt 0.298935 0.488837
vt 0.345739 0.461982
vt 0.396492 0.458440
vt 0.440259 0.442662
vt 0.427272 0.373124
vt 0.424621 0.351364
vt 0.432223 0.350278
vt 0.441063 0.337481
vt 0.463833 0.327156
vt 0.477267 0.312213
vt 0.502051 0.284733
vt 0.528820 0.289032
vt 0.526836 0.312213
vt 0.502051 0.312429
vt 0.477376 0.322101
vt 0.474175 0.341770
vt 0.459209 0.344031
vt 0.475828 0.354221
vt 0.460306 0.350463
vt 0.477289 0.358925
vt 0.459049 0.355253
vt 0.479368 0.365881
vt 0.459994 0.365250
vt 0.481226 0.378304
vt 0.452456 0.372533
vt 0.479400 0.388675
vt 0.479560 0.400722
vt 0.444245 0.394438
vt 0.447026 0.421919
vt 0.442789 0.363742
vt 0.445286 0.357992
vt 0.443498 0.351560
vt 0.440113 0.350534
vt 0.437150 0.349620
vt 0.443356 0.347529
vt 0.445407 0.350391
vt 0.457486 0.426094
vt 0.475504 0.412017
vt 0.471038 0.420278
vt 0.479882 0.421312
vt 0.482082 0.427284
vt 0.474451 0.437286
vt 0.489232 0.439358
vt 0.471527 0.446814
vt 0.456377 0.446172
vt 0.465144 0.462767
vt 0.484798 0.453527
vt 0.483129 0.466678
vt 0.502051 0.469303
vt 0.481536 0.488222
vt 0.458021 0.477366
vt 0.446058 0.468363
vt 0.460504 0.514427
vt 0.434645 0.503312
vt 0.445412 0.520782
vt 0.430970 0.520078
vt 0.442856 0.521883
vt 0.424586 0.536597
vt 0.430424 0.541796
vt 0.400163 0.538995
vt 0.401573 0.546250
vt 0.375700 0.537339
vt 0.375685 0.544237
vt 0.358606 0.528660
vt 0.345753 0.531193
vt 0.347563 0.550096
vt 0.327640 0.532666
vt 0.334136 0.513126
vt 0.266756 0.540323
vt 0.230592 0.533795
vt 0.207616 0.505394
vt 0.186300 0.526652
vt 0.179705 0.527717
vt 0.160591 0.546347
vt 0.742066 0.873939
vt 0.729951 0.816580
vt 0.742768 0.820829
vt 0.708722 0.921983
vt 0.173708 0.196899
vt 0.135221 0.272121
vt 0.091696 0.239864
vt 0.976674 0.744635
vt 0.929890 0.658743
vt 0.819112 0.860190
vt 0.821097 0.816224
vt 0.276339 0.686143
vt 0.253993 0.718337
vt 0.305276 0.643423
vt 0.337890 0.566905
vt 0.381037 0.560696
vt 0.417498 0.559267
vt 0.443795 0.543127
vt 0.453120 0.535573
vt 0.461721 0.532204
vt 0.485486 0.506140
vt 0.502051 0.506418
vt 0.502051 0.531457
vt 0.482269 0.529227
vt 0.502051 0.563340
vt 0.473241 0.565558
vt 0.452650 0.591420
vt 0.455469 0.559612
vt 0.423193 0.571777
vt 0.378126 0.607209
vt 0.384219 0.578250
vt 0.377405 0.649647
vt 0.465598 0.609020
vt 0.502051 0.609877
vt 0.502051 0.650200
vt 0.479062 0.649794
vt 0.454285 0.699846
vt 0.374655 0.693823
vt 0.355096 0.751047
vt 0.437806 0.757255
vt 0.360368 0.823223
vt 0.502198 0.827743
vt 0.502051 0.756208
vt 0.566296 0.757255
vt 0.501904 0.827743
vt 0.643735 0.823223
vt 0.649007 0.751047
vt 0.745085 0.754211
vt 0.750110 0.718337
vt 0.727764 0.686143
vt 0.629448 0.693823
vt 0.549817 0.699846
vt 0.502051 0.698659
vt 0.525041 0.649794
vt 0.538505 0.609020
vt 0.551452 0.591420
vt 0.502051 0.596287
vt 0.530861 0.565558
vt 0.521833 0.529227
vt 0.518617 0.506140
vt 0.522566 0.488222
vt 0.502051 0.491509
vt 0.520974 0.466678
vt 0.519305 0.453527
vt 0.538959 0.462767
vt 0.546082 0.477366
vt 0.543599 0.514427
vt 0.542382 0.532204
vt 0.550982 0.535573
vt 0.548634 0.559612
vt 0.560307 0.543127
vt 0.586604 0.559267
vt 0.580909 0.571777
vt 0.623065 0.560696
vt 0.619884 0.578250
vt 0.625976 0.607209
vt 0.626698 0.649647
vt 0.698827 0.643423
vt 0.817802 0.526652
vt 0.824398 0.527717
vt 0.843511 0.546347
vt 0.852498 0.526164
vt 0.861595 0.540411
vt 0.875881 0.506939
vt 0.889922 0.509888
vt 0.877025 0.463632
vt 0.852210 0.426794
vt 0.826151 0.438550
vt 0.796487 0.505394
vt 0.773511 0.533795
vt 0.737347 0.540323
vt 0.666212 0.566905
vt 0.656539 0.550096
vt 0.628418 0.544237
vt 0.602529 0.546250
vt 0.573679 0.541796
vt 0.558691 0.520782
vt 0.569458 0.503312
vt 0.573133 0.520078
vt 0.561247 0.521883
vt 0.569997 0.523866
vt 0.607537 0.514551
vt 0.610458 0.533861
vt 0.579517 0.536597
vt 0.603940 0.538995
vt 0.628402 0.537339
vt 0.645497 0.528660
vt 0.658350 0.531193
vt 0.676463 0.532666
vt 0.669967 0.513126
vt 0.639873 0.506099
vt 0.638883 0.513031
vt 0.635821 0.518312
vt 0.607273 0.512806
vt 0.599540 0.501257
vt 0.601370 0.488867
vt 0.558045 0.468363
vt 0.563844 0.442662
vt 0.547726 0.446172
vt 0.532575 0.446814
vt 0.514871 0.439358
vt 0.502051 0.451959
vt 0.502051 0.438599
vt 0.494634 0.427263
vt 0.493394 0.418284
vt 0.502051 0.412133
vt 0.502051 0.418721
vt 0.502051 0.426360
vt 0.509469 0.427263
vt 0.522021 0.427284
vt 0.529651 0.437286
vt 0.546617 0.426094
vt 0.557076 0.421919
vt 0.559857 0.394438
vt 0.524542 0.400722
vt 0.528599 0.412017
vt 0.533065 0.420278
vt 0.524221 0.421312
vt 0.510709 0.418284
vt 0.502051 0.397199
vt 0.502051 0.385498
vt 0.502051 0.367234
vt 0.502051 0.358005
vt 0.502051 0.356312
vt 0.502051 0.354648
vt 0.526814 0.358925
vt 0.524735 0.365881
vt 0.522877 0.378304
vt 0.524703 0.388675
vt 0.551647 0.373247
vt 0.561313 0.364458
vt 0.576831 0.373298
vt 0.571880 0.351060
vt 0.579482 0.350583
vt 0.572632 0.316389
vt 0.563040 0.337919
vt 0.566953 0.350395
vt 0.558817 0.358770
vt 0.544108 0.365918
vt 0.545054 0.356025
vt 0.543797 0.351244
vt 0.558695 0.351147
vt 0.560605 0.352280
vt 0.563990 0.351303
vt 0.560747 0.348299
vt 0.544894 0.344785
vt 0.528275 0.354221
vt 0.529928 0.341770
vt 0.502051 0.338075
vt 0.502051 0.318073
vt 0.526727 0.322101
vt 0.540269 0.327589
vt 0.551420 0.299950
vt 0.531932 0.262223
vt 0.538181 0.231744
vt 0.541080 0.201327
vt 0.502051 0.191862
vt 0.575336 0.172219
vt 0.579739 0.204919
vt 0.574826 0.248766
vt 0.557381 0.274266
vt 0.591163 0.290599
vt 0.606945 0.266621
vt 0.653759 0.294896
vt 0.622850 0.315669
vt 0.635962 0.356413
vt 0.694997 0.342745
vt 0.651612 0.410405
vt 0.719820 0.432821
vt 0.765531 0.351908
vt 0.783125 0.432563
vt 0.794852 0.362762
vt 0.800435 0.340863
vt 0.739033 0.281408
vt 0.676670 0.252236
vt 0.623633 0.217586
vt 0.662947 0.199266
vt 0.834436 0.376606
vt 0.821965 0.388417
vt 0.868641 0.415978
vt 0.890983 0.457415
vt 0.679886 0.881245
vt 0.693886 0.833690
vt 0.717547 0.816707
vt 0.656534 0.140386
vt 0.705168 0.488837
vt 0.642567 0.490583
vt 0.607611 0.458440
vt 0.610926 0.406573
vt 0.599441 0.365947
vt 0.658364 0.461982
vt 0.593166 0.343176
vt 0.259018 0.754211
vt 0.182138 0.388417
vt 0.135461 0.415978
vt 0.177951 0.438550
vt 0.151893 0.426794
vt 0.128221 0.506939
vt 0.127077 0.463632
vt 0.113120 0.457415
vt 0.114181 0.509888
vt 0.142508 0.540411
vt 0.151604 0.526164
vt 0.361536 0.490583
vt 0.402732 0.488867
vt 0.404562 0.501257
vt 0.396830 0.512806
vt 0.396566 0.514551
vt 0.434106 0.523866
vt 0.393645 0.538445
vt 0.368281 0.518312
vt 0.365220 0.513031
vt 0.364230 0.506099
usemtl FrontColorNoCulling.001_hrad1noCulling.JPG.001_C:\Users\Principal\Documents\My_Dropbox\Grafics_II\Blender\.002
s 1
f 136/1 139/2 138/3
f 262/4 255/5 258/6
f 141/7 143/8 384/9
usemtl hrad1noCulling.000_Imatges\hrad1noCulling.JPG.001
f 1/10 2/11 3/12
f 2/11 1/10 4/13
f 4/13 5/14 2/11
f 5/14 4/13 6/15
f 6/15 4/13 7/16
f 6/17 7/18 8/19
f 3/12 9/20 10/21
f 2/11 9/20 3/12
f 2/11 11/22 9/20
f 12/23 11/22 2/11
f 12/23 13/24 11/22
f 12/23 14/25 13/24
f 15/26 14/25 12/23
f 16/27 14/28 15/29
f 16/27 17/30 14/28
f 18/31 17/30 16/27
f 18/31 19/32 17/30
f 20/33 19/32 18/31
f 19/32 20/33 21/34
f 20/33 22/35 21/34
f 20/33 23/36 22/35
f 20/33 24/37 23/36
f 20/33 25/38 24/37
f 25/38 20/33 18/31
f 25/38 18/31 26/39
f 26/39 18/31 27/40
f 18/31 16/27 27/40
f 27/40 16/27 28/41
f 16/27 15/29 28/41
f 28/42 15/26 29/43
f 15/26 12/23 29/43
f 29/43 12/23 5/14
f 5/14 12/23 2/11
f 30/44 29/43 5/14
f 28/42 29/43 30/44
f 31/45 28/42 30/44
f 27/40 28/41 31/46
f 27/40 31/46 32/41
f 31/47 30/48 32/49
f 32/49 30/48 33/50
f 30/48 34/51 33/50
f 30/48 6/17 34/51
f 30/44 5/14 6/15
f 6/17 8/19 34/51
f 8/19 35/52 34/51
f 8/19 36/53 35/52
f 36/53 37/54 35/52
f 38/55 39/56 10/21
f 38/55 40/57 39/56
f 41/58 40/57 38/55
f 41/58 42/59 40/57
f 43/60 42/59 41/58
f 43/60 44/61 42/59
f 45/62 44/61 43/60
f 46/63 44/61 45/62
f 46/63 47/64 44/61
f 37/54 47/64 46/63
f 42/59 47/64 48/65
f 44/61 47/64 42/59
f 42/59 48/65 40/57
f 40/57 48/65 49/66
f 40/57 49/66 39/56
f 35/52 37/54 46/63
f 35/52 46/63 50/67
f 46/63 45/62 50/67
f 50/67 45/62 51/68
f 45/62 52/69 51/68
f 45/62 53/70 52/69
f 43/60 53/70 45/62
f 43/60 54/71 53/70
f 55/72 54/71 43/60
f 55/72 56/73 54/71
f 57/74 56/73 55/72
f 56/73 57/74 58/75
f 57/74 59/76 58/75
f 60/77 59/76 57/74
f 61/78 59/76 60/77
f 62/79 59/76 61/78
f 63/80 59/76 62/79
f 63/80 58/75 59/76
f 64/81 58/75 63/80
f 65/82 58/75 64/81
f 56/73 58/75 65/82
f 66/83 56/73 65/82
f 56/73 66/83 54/71
f 54/71 66/83 53/70
f 66/83 52/69 53/70
f 52/69 66/83 67/84
f 67/84 66/83 65/82
f 67/84 65/82 68/85
f 68/85 65/82 64/81
f 69/86 68/85 64/81
f 70/87 68/85 69/86
f 70/87 71/88 68/85
f 72/89 71/88 70/87
f 73/90 71/88 72/89
f 74/91 71/88 73/90
f 74/91 67/84 71/88
f 75/92 67/84 74/91
f 51/68 67/84 75/92
f 51/68 52/69 67/84
f 76/93 51/68 75/92
f 50/67 51/68 76/93
f 50/67 76/93 77/94
f 76/95 78/96 77/97
f 76/93 79/98 78/99
f 76/93 75/92 79/98
f 79/98 75/92 80/100
f 75/92 81/101 80/100
f 75/92 74/91 81/101
f 74/91 73/90 81/101
f 81/101 73/90 82/102
f 82/102 73/90 83/103
f 83/103 73/90 72/89
f 83/103 72/89 84/104
f 84/104 72/89 85/105
f 85/105 72/89 86/106
f 72/89 70/87 86/106
f 86/106 70/87 87/107
f 70/87 69/86 87/107
f 87/107 69/86 64/81
f 87/107 64/81 88/108
f 88/108 64/81 89/109
f 89/109 64/81 63/80
f 89/109 63/80 90/110
f 90/110 63/80 91/111
f 91/111 63/80 62/79
f 91/111 62/79 92/112
f 92/112 62/79 61/78
f 93/113 92/112 61/78
f 94/114 92/112 93/113
f 95/115 92/112 94/114
f 95/115 91/111 92/112
f 96/116 91/111 95/115
f 90/110 91/111 96/116
f 97/117 90/110 96/116
f 97/117 98/118 90/110
f 99/119 98/118 97/117
f 99/119 100/120 98/118
f 101/121 100/120 99/119
f 101/121 102/122 100/120
f 103/123 102/122 101/121
f 103/123 104/124 102/122
f 105/125 104/124 103/123
f 105/125 106/126 104/124
f 107/127 106/126 105/125
f 108/128 106/126 107/127
f 108/128 109/129 106/126
f 110/130 109/129 108/128
f 85/105 109/129 110/130
f 85/105 86/106 109/129
f 109/129 86/106 111/131
f 86/106 88/108 111/131
f 86/106 87/107 88/108
f 112/132 111/131 88/108
f 104/124 111/131 112/132
f 106/126 111/131 104/124
f 109/129 111/131 106/126
f 104/124 112/132 102/122
f 102/122 112/132 113/133
f 112/132 114/134 113/133
f 112/132 115/135 114/134
f 112/132 88/108 115/135
f 88/108 89/109 115/135
f 115/135 89/109 116/136
f 116/136 89/109 98/118
f 90/110 98/118 89/109
f 98/118 117/137 116/136
f 117/137 98/118 100/120
f 100/120 102/122 117/137
f 102/122 113/133 117/137
f 117/137 113/133 114/134
f 117/137 114/134 116/136
f 114/134 115/135 116/136
f 110/130 118/138 85/105
f 119/139 118/138 110/130
f 119/139 120/140 118/138
f 121/141 120/140 119/139
f 122/142 120/140 121/141
f 122/142 118/138 120/140
f 118/138 122/142 123/143
f 124/144 123/143 122/142
f 125/145 123/143 124/144
f 126/146 123/143 125/145
f 118/138 123/143 126/146
f 85/105 118/138 126/146
f 85/105 126/146 127/147
f 126/146 125/145 127/147
f 128/148 127/147 125/145
f 127/147 128/148 129/149
f 130/150 129/149 128/148
f 131/151 129/149 130/150
f 127/147 129/149 131/151
f 132/152 127/147 131/151
f 132/152 85/105 127/147
f 132/152 133/153 85/105
f 134/154 133/153 132/152
f 134/154 135/155 133/153
f 136/156 135/155 134/154
f 136/156 137/157 135/155
f 136/156 138/158 137/157
f 139/159 136/156 140/160
f 140/160 141/161 139/159
f 142/162 141/161 140/160
f 142/162 143/163 141/161
f 144/164 143/163 142/162
f 144/164 145/165 143/163
f 144/164 146/166 145/165
f 147/167 146/166 144/164
f 148/168 146/166 147/167
f 148/168 149/169 146/166
f 150/170 149/169 148/168
f 150/170 82/102 149/169
f 81/101 82/102 150/170
f 151/171 81/101 150/170
f 80/100 81/101 151/171
f 80/100 151/171 152/172
f 153/173 152/172 151/171
f 152/172 153/173 154/174
f 153/173 155/175 154/174
f 156/176 155/177 153/178
f 155/177 156/176 157/179
f 156/176 78/96 157/179
f 156/176 77/97 78/96
f 158/28 77/97 156/176
f 159/180 77/94 158/181
f 159/180 50/67 77/94
f 35/52 50/67 159/180
f 34/51 35/52 159/180
f 34/51 159/180 33/50
f 33/50 159/180 160/182
f 160/182 159/180 158/181
f 161/27 160/29 158/28
f 161/27 32/41 160/29
f 27/40 32/41 161/27
f 162/31 27/40 161/27
f 26/39 27/40 162/31
f 163/38 26/39 162/31
f 164/183 26/39 163/38
f 164/183 25/38 26/39
f 25/38 164/183 165/184
f 165/184 164/183 163/38
f 165/184 163/38 166/37
f 166/37 163/38 167/33
f 162/31 167/33 163/38
f 162/31 168/32 167/33
f 162/31 169/30 168/32
f 161/27 169/30 162/31
f 161/27 158/28 169/30
f 169/30 158/28 170/185
f 158/28 156/176 170/185
f 170/185 156/176 153/178
f 170/185 153/178 171/186
f 171/186 153/178 172/34
f 172/34 153/178 173/35
f 153/173 174/187 173/188
f 153/173 175/189 174/187
f 153/173 151/171 175/189
f 151/171 150/170 175/189
f 150/170 176/190 175/189
f 150/170 147/167 176/190
f 150/170 148/168 147/167
f 176/190 147/167 177/191
f 177/191 147/167 144/164
f 177/191 144/164 178/192
f 178/192 144/164 142/162
f 178/192 142/162 179/193
f 179/193 142/162 140/160
f 140/160 136/156 179/193
f 179/193 136/156 180/194
f 180/194 136/156 134/154
f 180/194 134/154 181/195
f 134/154 182/196 181/195
f 134/154 132/152 182/196
f 132/152 131/151 182/196
f 183/197 182/196 131/151
f 184/198 182/196 183/197
f 184/198 185/199 182/196
f 186/200 185/199 184/198
f 186/200 187/201 185/199
f 188/202 187/201 186/200
f 188/202 189/203 187/201
f 188/202 190/204 189/203
f 191/205 190/204 188/202
f 191/205 192/206 190/204
f 191/205 176/190 192/206
f 175/189 176/190 191/205
f 175/189 191/205 193/207
f 193/207 191/205 194/208
f 191/205 188/202 194/208
f 195/209 194/208 188/202
f 196/210 194/208 195/209
f 197/211 194/208 196/210
f 193/207 194/208 197/211
f 198/212 193/207 197/211
f 199/213 193/207 198/212
f 175/189 193/207 199/213
f 174/187 175/189 199/213
f 174/187 199/213 200/214
f 201/215 200/214 199/213
f 201/215 166/216 200/214
f 165/217 166/216 201/215
f 202/218 165/217 201/215
f 203/219 165/220 202/218
f 24/221 165/220 203/219
f 24/37 25/38 165/184
f 204/222 24/221 203/219
f 23/223 24/221 204/222
f 23/223 204/222 22/224
f 22/224 204/222 205/225
f 205/225 204/222 206/226
f 206/226 204/222 203/219
f 206/226 203/219 207/227
f 203/219 208/228 207/227
f 202/218 208/228 203/219
f 202/218 201/215 208/228
f 201/215 198/212 208/228
f 201/215 199/213 198/212
f 208/228 198/212 197/211
f 208/228 197/211 196/210
f 208/228 196/210 209/229
f 209/229 196/210 210/230
f 196/210 195/209 210/230
f 210/230 195/209 211/231
f 195/209 212/232 211/231
f 195/209 188/202 212/232
f 212/232 188/202 186/200
f 212/232 186/200 211/231
f 211/231 186/200 213/233
f 186/200 214/234 213/233
f 186/200 184/198 214/234
f 184/198 215/235 214/234
f 184/198 183/197 215/235
f 183/197 216/236 215/235
f 183/197 217/237 216/236
f 183/197 131/151 217/237
f 217/237 131/151 130/150
f 217/237 130/150 216/236
f 216/236 130/150 218/238
f 219/239 218/238 130/150
f 220/240 218/238 219/239
f 220/240 216/236 218/238
f 221/241 216/236 220/240
f 221/241 215/235 216/236
f 222/242 215/235 221/241
f 222/242 223/243 215/235
f 224/244 223/243 222/242
f 224/244 225/245 223/243
f 226/246 225/245 224/244
f 227/247 225/245 226/246
f 227/247 228/248 225/245
f 229/249 228/248 227/247
f 230/250 228/248 229/249
f 231/251 228/248 230/250
f 231/251 211/231 228/248
f 231/251 210/230 211/231
f 232/252 210/230 231/251
f 232/252 209/229 210/230
f 207/227 209/229 232/252
f 207/227 208/228 209/229
f 206/226 207/227 232/252
f 233/253 206/226 232/252
f 205/225 206/226 233/253
f 234/254 205/225 233/253
f 234/254 22/224 205/225
f 21/34 22/35 234/178
f 235/186 21/34 234/178
f 19/32 21/34 235/186
f 19/32 235/186 236/185
f 236/185 235/186 234/178
f 236/185 234/178 237/176
f 237/176 234/178 238/177
f 239/255 238/256 234/254
f 240/257 238/256 239/255
f 240/257 241/258 238/256
f 242/259 241/258 240/257
f 242/259 243/260 241/258
f 243/260 242/259 244/261
f 244/261 242/259 245/262
f 242/259 246/263 245/262
f 242/259 240/257 246/263
f 240/257 239/255 246/263
f 246/263 239/255 247/264
f 239/255 234/254 247/264
f 234/254 248/265 247/264
f 234/254 233/253 248/265
f 248/265 233/253 249/266
f 249/266 233/253 250/267
f 233/253 231/251 250/267
f 233/253 232/252 231/251
f 250/267 231/251 230/250
f 250/267 230/250 229/249
f 250/267 229/249 251/268
f 251/268 229/249 252/269
f 229/249 227/247 252/269
f 227/247 253/270 252/269
f 227/247 226/246 253/270
f 253/270 226/246 254/271
f 226/246 255/272 254/271
f 226/246 224/244 255/272
f 255/272 224/244 222/242
f 256/273 255/272 222/242
f 257/274 255/272 256/273
f 257/274 258/275 255/272
f 257/274 259/276 258/275
f 260/277 259/276 257/274
f 261/278 259/276 260/277
f 261/278 262/279 259/276
f 263/280 262/279 261/278
f 254/271 262/279 263/280
f 254/271 255/272 262/279
f 262/279 258/275 259/276
f 253/270 254/271 263/280
f 253/270 263/280 264/281
f 264/281 263/280 261/278
f 265/282 264/281 261/278
f 265/282 252/269 264/281
f 266/283 252/269 265/282
f 266/283 251/268 252/269
f 267/284 251/268 266/283
f 249/266 251/268 267/284
f 249/266 250/267 251/268
f 249/266 267/284 268/285
f 267/284 266/283 268/285
f 268/285 266/283 269/286
f 266/283 270/287 269/286
f 266/283 271/288 270/287
f 266/283 265/282 271/288
f 261/278 271/288 265/282
f 261/278 260/277 271/288
f 271/288 260/277 270/287
f 270/287 260/277 272/289
f 272/289 260/277 257/274
f 257/274 273/290 272/289
f 257/274 256/273 273/290
f 273/290 256/273 274/291
f 256/273 275/292 274/291
f 256/273 222/242 275/292
f 222/242 221/241 275/292
f 275/292 221/241 276/293
f 276/293 221/241 220/240
f 276/293 220/240 277/294
f 277/294 220/240 278/295
f 278/295 220/240 219/239
f 278/295 219/239 279/296
f 219/239 280/297 279/296
f 130/150 280/297 219/239
f 130/150 128/148 280/297
f 280/297 128/148 124/144
f 125/145 124/144 128/148
f 280/297 124/144 281/298
f 281/298 124/144 282/299
f 282/299 124/144 122/142
f 282/299 122/142 283/300
f 283/300 122/142 121/141
f 119/139 283/300 121/141
f 284/301 283/300 119/139
f 285/302 283/300 284/301
f 286/303 283/300 285/302
f 286/303 282/299 283/300
f 281/298 282/299 286/303
f 287/304 281/298 286/303
f 279/296 281/298 287/304
f 280/297 281/298 279/296
f 288/305 279/296 287/304
f 289/306 279/296 288/305
f 278/295 279/296 289/306
f 277/294 278/295 289/306
f 290/307 277/294 289/306
f 276/293 277/294 290/307
f 291/308 276/293 290/307
f 276/293 291/308 292/309
f 291/308 293/310 292/309
f 291/308 294/311 293/310
f 291/308 290/307 294/311
f 290/307 295/312 294/311
f 290/307 288/305 295/312
f 290/307 289/306 288/305
f 295/312 288/305 296/313
f 288/305 297/314 296/313
f 288/305 287/304 297/314
f 287/304 286/303 297/314
f 297/314 286/303 285/302
f 297/314 285/302 284/301
f 294/311 297/314 284/301
f 294/311 296/313 297/314
f 295/312 296/313 294/311
f 294/311 284/301 293/310
f 284/301 298/315 293/310
f 284/301 108/128 298/315
f 119/139 108/128 284/301
f 110/130 108/128 119/139
f 108/128 299/316 298/315
f 108/128 107/127 299/316
f 107/127 105/125 299/316
f 299/316 105/125 300/317
f 300/317 105/125 103/123
f 300/317 103/123 301/318
f 301/318 103/123 101/121
f 301/318 101/121 302/319
f 303/320 302/319 101/121
f 304/321 302/319 303/320
f 304/321 301/318 302/319
f 305/322 301/318 304/321
f 305/322 300/317 301/318
f 306/323 300/317 305/322
f 299/316 300/317 306/323
f 307/324 299/316 306/323
f 293/310 299/316 307/324
f 293/310 298/315 299/316
f 308/325 293/310 307/324
f 293/310 308/325 292/309
f 309/326 292/309 308/325
f 292/309 309/326 310/327
f 311/328 310/327 309/326
f 310/327 311/328 312/329
f 312/329 311/328 313/330
f 311/328 314/331 313/330
f 311/328 315/332 314/331
f 311/328 316/333 315/332
f 311/328 309/326 316/333
f 309/326 317/334 316/333
f 309/326 308/325 317/334
f 306/323 317/334 308/325
f 317/334 306/323 305/322
f 317/334 305/322 318/335
f 318/335 305/322 304/321
f 319/336 318/335 304/321
f 320/337 318/335 319/336
f 321/338 318/335 320/337
f 321/338 316/333 318/335
f 322/339 316/333 321/338
f 315/332 316/333 322/339
f 322/339 323/340 315/332
f 320/337 323/340 322/339
f 323/340 320/337 324/341
f 320/337 319/336 324/341
f 319/336 325/342 324/341
f 319/336 304/321 325/342
f 325/342 304/321 303/320
f 325/342 303/320 326/343
f 303/320 327/344 326/343
f 303/320 97/117 327/344
f 99/119 97/117 303/320
f 303/320 101/121 99/119
f 97/117 328/345 327/344
f 97/117 96/116 328/345
f 328/345 96/116 95/115
f 329/346 328/345 95/115
f 326/343 328/345 329/346
f 326/343 327/344 328/345
f 330/347 326/343 329/346
f 324/341 326/343 330/347
f 325/342 326/343 324/341
f 314/331 324/341 330/347
f 314/331 323/340 324/341
f 314/331 315/332 323/340
f 314/331 330/347 331/348
f 330/347 94/114 331/348
f 330/347 329/346 94/114
f 329/346 95/115 94/114
f 94/114 93/113 331/348
f 331/348 93/113 332/349
f 93/113 61/78 332/349
f 332/349 61/78 60/77
f 332/349 60/77 333/350
f 333/350 60/77 334/351
f 334/351 60/77 335/352
f 60/77 55/72 335/352
f 60/77 57/74 55/72
f 335/352 55/72 43/60
f 335/352 43/60 41/58
f 336/353 335/352 41/58
f 336/353 334/351 335/352
f 337/354 334/351 336/353
f 338/355 334/351 337/354
f 338/355 333/350 334/351
f 338/355 339/356 333/350
f 338/355 340/357 339/356
f 341/358 340/357 338/355
f 342/359 340/357 341/358
f 342/359 343/360 340/357
f 342/359 344/361 343/360
f 345/362 344/361 342/359
f 345/362 346/363 344/361
f 345/362 347/364 346/363
f 348/365 347/364 345/362
f 349/366 347/364 348/365
f 349/366 248/265 347/364
f 247/264 248/265 349/366
f 246/263 247/264 349/366
f 246/263 349/366 350/367
f 350/367 349/366 348/365
f 350/367 348/365 351/368
f 351/368 348/365 352/369
f 352/369 348/365 342/359
f 348/365 345/362 342/359
f 352/369 342/359 353/370
f 353/370 342/359 341/358
f 353/370 341/358 354/371
f 341/358 337/354 354/371
f 341/358 338/355 337/354
f 354/371 337/354 336/353
f 355/372 354/371 336/353
f 355/372 353/370 354/371
f 355/372 352/369 353/370
f 11/22 352/369 355/372
f 11/22 351/368 352/369
f 11/22 13/24 351/368
f 356/96 351/95 13/97
f 350/367 351/368 356/373
f 357/374 350/367 356/373
f 246/263 350/367 357/374
f 245/262 246/263 357/374
f 358/375 245/262 357/374
f 244/261 245/262 358/375
f 244/261 358/375 359/376
f 359/377 358/179 243/378
f 243/378 358/179 241/379
f 358/179 238/177 241/379
f 238/177 358/179 237/176
f 358/179 356/96 237/176
f 358/375 357/374 356/373
f 237/176 356/96 13/97
f 14/28 237/176 13/97
f 14/28 236/185 237/176
f 17/30 236/185 14/28
f 19/32 236/185 17/30
f 243/260 244/261 359/376
f 9/20 11/22 355/372
f 9/20 355/372 360/380
f 355/372 336/353 360/380
f 336/353 38/55 360/380
f 336/353 41/58 38/55
f 360/380 38/55 10/21
f 9/20 360/380 10/21
f 248/265 249/266 347/364
f 249/266 361/381 347/364
f 249/266 268/285 361/381
f 361/381 268/285 362/382
f 268/285 269/286 362/382
f 362/382 269/286 274/291
f 269/286 273/290 274/291
f 270/287 273/290 269/286
f 270/287 272/289 273/290
f 362/382 274/291 363/383
f 274/291 275/292 363/383
f 275/292 276/293 363/383
f 363/383 276/293 364/384
f 276/293 310/327 364/384
f 276/293 292/309 310/327
f 365/385 364/384 310/327
f 344/361 364/384 365/385
f 344/361 346/363 364/384
f 346/363 366/386 364/384
f 361/381 366/386 346/363
f 361/381 362/382 366/386
f 366/386 362/382 363/383
f 366/386 363/383 364/384
f 347/364 361/381 346/363
f 343/360 344/361 365/385
f 343/360 365/385 367/387
f 367/387 365/385 312/329
f 365/385 310/327 312/329
f 367/387 312/329 313/330
f 343/360 367/387 313/330
f 343/360 313/330 340/357
f 340/357 313/330 339/356
f 339/356 313/330 331/348
f 313/330 314/331 331/348
f 339/356 331/348 332/349
f 333/350 339/356 332/349
f 322/339 321/338 320/337
f 316/333 317/334 318/335
f 307/324 306/323 308/325
f 252/269 253/270 264/281
f 211/231 225/245 228/248
f 225/245 211/231 213/233
f 213/233 223/243 225/245
f 223/243 213/233 214/234
f 223/243 214/234 215/235
f 166/216 368/388 200/214
f 166/37 167/33 368/36
f 167/33 173/35 368/36
f 167/33 172/34 173/35
f 168/32 172/34 167/33
f 168/32 171/186 172/34
f 168/32 170/185 171/186
f 168/32 169/30 170/185
f 368/388 173/188 200/214
f 173/188 174/187 200/214
f 192/206 176/190 177/191
f 192/206 177/191 190/204
f 190/204 177/191 178/192
f 190/204 178/192 189/203
f 189/203 178/192 179/193
f 180/194 189/203 179/193
f 180/194 181/195 189/203
f 187/201 189/203 181/195
f 187/201 181/195 185/199
f 185/199 181/195 182/196
f 32/49 33/50 160/182
f 78/99 369/389 157/390
f 79/98 369/389 78/99
f 370/391 369/389 79/98
f 370/391 371/392 369/389
f 372/393 371/392 370/391
f 373/394 371/392 372/393
f 373/394 157/390 371/392
f 374/395 157/390 373/394
f 374/377 375/378 157/179
f 375/396 374/395 373/394
f 375/396 373/394 372/393
f 376/397 375/396 372/393
f 157/179 375/378 376/379
f 157/179 376/379 155/177
f 155/175 376/397 377/398
f 376/397 372/393 377/398
f 372/393 370/391 377/398
f 370/391 154/174 377/398
f 370/391 152/172 154/174
f 370/391 80/100 152/172
f 370/391 79/98 80/100
f 155/175 377/398 154/174
f 369/389 371/392 157/390
f 82/102 378/399 149/169
f 82/102 83/103 378/399
f 378/399 83/103 84/104
f 378/399 84/104 379/400
f 379/400 84/104 133/153
f 133/153 84/104 85/105
f 135/155 379/400 133/153
f 135/155 380/401 379/400
f 137/157 380/401 135/155
f 137/157 381/402 380/401
f 137/157 382/403 381/402
f 383/404 382/403 137/157
f 384/405 382/403 383/404
f 384/405 385/406 382/403
f 384/405 145/165 385/406
f 384/405 143/163 145/165
f 139/159 141/161 384/405
f 383/404 139/159 384/405
f 138/158 139/159 383/404
f 138/158 383/404 137/157
f 146/166 385/406 145/165
f 146/166 386/407 385/406
f 146/166 387/408 386/407
f 149/169 387/408 146/166
f 149/169 378/399 387/408
f 387/408 378/399 379/400
f 387/408 379/400 380/401
f 386/407 387/408 380/401
f 386/407 380/401 381/402
f 381/402 382/403 386/407
f 385/406 386/407 382/403
f 67/84 68/85 71/88
