# Blender MTL File: 'None'
# Material Count: 2
newmtl FrontColorNoCulling.001_hrad1noCulling.JPG.001_C:\Users\Principal\Documents\My_Dropbox\Grafics_II\Blender\.002
Ns 27.450980
Ka 0.000000 0.000000 0.000000
Kd 0.327680 0.327680 0.327680
Ks 0.165000 0.165000 0.165000
Ni 1.000000
d 1.000000
illum 2
map_Kd Imatges/hrad1noCulling.JPG


newmtl hrad1noCulling.000_Imatges\hrad1noCulling.JPG.001
Ns 27.450980
Ka 0.000000 0.000000 0.000000
Kd 0.262144 0.262144 0.262144
Ks 0.165000 0.165000 0.165000
Ni 1.000000
d 1.000000
illum 2
map_Kd Imatges\hrad1noCulling.JPG


