# Blender MTL File: 'Museu.blend'
# Material Count: 3

newmtl material0.031
Ns 33.333333
Ka 0.000000 0.000000 0.000000
Kd 0.512000 0.512000 0.512000
Ks 0.165000 0.165000 0.165000
Ni 1.000000
d 1.000000
illum 2
map_Kd C:\Users\Principal\Documents\My Dropbox\Grafics II\Blender\Models\sofa\images\texture1.jpg

newmtl material1.030
Ns 33.333333
Ka 0.000000 0.000000 0.000000
Kd 0.060235 0.060235 0.060235
Ks 0.165000 0.165000 0.165000
Ni 1.000000
d 1.000000
illum 2
map_Kd texture1.jpg

newmtl material2.030
Ns 33.333333
Ka 0.000000 0.000000 0.000000
Kd 0.397554 0.397554 0.397554
Ks 0.165000 0.165000 0.165000
Ni 1.000000
d 1.000000
illum 2
map_Kd C:\Users\Principal\Documents\My Dropbox\Grafics II\Blender\Models\sofa\images\texture1.jpg
