# Blender v2.66 (sub 1) OBJ File: 'Museu.blend'
# www.blender.org
mtllib camera7.mtl
o mesh2.001_mesh2-geometry.002
v -19.454016 4.648317 2.931807
v -19.468954 4.648317 2.899166
v -19.448473 4.648317 2.926360
v -19.480839 4.648317 2.910841
v -19.457964 4.648317 2.938503
v -19.441708 4.648317 2.922534
v -19.460041 4.648317 2.945992
v -19.434181 4.648317 2.920590
v -19.480839 4.662171 2.910841
v -19.454016 4.662171 2.931807
v -19.448473 4.662171 2.926360
v -19.403154 4.662171 2.961781
v -19.489298 4.648317 2.925195
v -19.457964 4.662171 2.938503
v -19.407101 4.662171 2.968476
v -19.454453 4.648317 2.890966
v -19.468954 4.662171 2.899166
v -19.401075 4.662171 2.954292
v -19.441708 4.662171 2.922534
v -19.380278 4.648317 2.989441
v -19.412645 4.648317 2.973924
v -19.407101 4.648317 2.968476
v -19.403154 4.648317 2.961781
v -19.371819 4.648317 2.975089
v -19.401075 4.648317 2.954292
v -19.460110 4.648317 2.953765
v -19.460041 4.662171 2.945992
v -19.412645 4.662171 2.973924
v -19.489298 4.662171 2.925195
v -19.426407 4.648317 2.920659
v -19.371819 4.662171 2.975089
v -19.434181 4.662171 2.920590
v -19.401007 4.662171 2.946519
v -19.419411 4.648317 2.977750
v -19.401007 4.648317 2.946519
v -19.458166 4.648317 2.961290
v -19.380278 4.662171 2.989441
v -19.460110 4.662171 2.953765
v -19.418919 4.648317 2.922737
v -19.454453 4.662171 2.890966
v -19.392162 4.648317 3.001117
v -19.367363 4.648317 2.959036
v -19.419411 4.662171 2.977750
v -19.454340 4.648317 2.968055
v -19.493753 4.662171 2.941247
v -19.454340 4.662171 2.968055
v -19.458166 4.662171 2.961290
v -19.412224 4.648317 2.926683
v -19.402950 4.662171 2.938993
v -19.426407 4.662171 2.920659
v -19.367363 4.662171 2.959036
v -19.426937 4.648317 2.979694
v -19.402950 4.648317 2.938993
v -19.426937 4.662171 2.979694
v -19.493753 4.648317 2.941247
v -19.448893 4.662171 2.973599
v -19.392162 4.662171 3.001117
v -19.438324 4.648317 2.886797
v -19.418919 4.662171 2.922737
v -19.406776 4.662171 2.932228
v -19.434708 4.648317 2.979625
v -19.406776 4.648317 2.932228
v -19.448893 4.648317 2.973599
v -19.493902 4.662171 2.957906
v -19.406664 4.662171 3.009317
v -19.442196 4.662171 2.977546
v -19.434708 4.662171 2.979625
v -19.367214 4.662171 2.942376
v -19.438324 4.662171 2.886797
v -19.367214 4.648317 2.942376
v -19.412224 4.662171 2.926683
v -19.442196 4.648317 2.977546
v -19.406664 4.648317 3.009317
v -19.422792 4.648317 3.013485
v -19.493902 4.648317 2.957906
v -19.422792 4.662171 3.013485
v -19.371382 4.662171 2.926246
v -19.421663 4.662171 2.886946
v -19.421663 4.648317 2.886946
v -19.439453 4.648317 3.013336
v -19.489735 4.648317 2.974036
v -19.489735 4.662171 2.974036
v -19.379583 4.662171 2.911746
v -19.371382 4.648317 2.926246
v -19.455505 4.648317 3.008882
v -19.439453 4.662171 3.013336
v -19.405611 4.662171 2.891402
v -19.405611 4.648317 2.891402
v -19.481533 4.648317 2.988538
v -19.481533 4.662171 2.988538
v -19.379583 4.648317 2.911746
v -19.391258 4.662171 2.899860
v -19.455505 4.662171 3.008882
v -19.469858 4.648317 3.000423
v -19.391258 4.648317 2.899860
v -19.469858 4.662171 3.000423
v -19.548300 4.333795 2.882465
v -19.525064 4.333795 2.852737
v -19.529438 4.330364 2.860870
v -19.499914 4.348338 2.872393
v -19.462204 4.323741 2.842350
v -19.504288 4.344909 2.880527
v -19.530022 4.339363 2.917557
v -19.509882 4.343739 2.888548
v -19.541464 4.330364 2.876257
v -19.555071 4.339249 2.887090
v -19.522211 4.339249 2.845049
v -19.537659 4.336515 2.866837
v -19.497063 4.353795 2.864706
v -19.530348 4.329023 2.925626
v -19.535030 4.329193 2.868891
v -19.529043 4.337179 2.917922
v -19.531324 4.341398 2.917717
v -19.533260 4.337438 2.860526
v -19.495924 4.360908 2.857986
v -19.531723 4.328736 2.927598
v -19.529274 4.329868 2.923626
v -19.534523 4.344488 2.919523
v -19.516314 4.344909 2.895915
v -19.528454 4.334993 2.918783
v -19.532860 4.343144 2.918387
v -19.542721 4.337438 2.872631
v -19.529819 4.340137 2.854127
v -19.499622 4.427948 2.813105
v -19.542803 4.323741 2.945467
v -19.528574 4.331208 2.921737
v -19.536205 4.345330 2.921049
v -19.528294 4.332955 2.920085
v -19.523149 4.348338 2.902121
v -19.537785 4.345618 2.922861
v -19.529921 4.353795 2.906747
v -19.536169 4.360908 2.909476
v -19.548098 4.340137 2.877515
v -19.521072 4.346360 2.838329
v -19.496574 4.369188 2.852693
v -19.280897 4.554462 2.984061
v -19.533306 4.329023 2.929409
v -19.324078 4.450255 3.116424
v -19.561317 4.346360 2.889819
v -19.580219 4.427948 2.916222
v -19.527575 4.344427 2.848079
v -19.498974 4.378072 2.849185
v -19.243481 4.450255 3.013306
v -19.410408 4.491206 2.924362
v -19.534986 4.329868 2.930935
v -19.361494 4.554462 3.087178
v -19.536652 4.331208 2.932073
v -19.541462 4.369188 2.910121
v -19.553425 4.344427 2.881154
v -19.539162 4.345330 2.924832
v -19.526678 4.350021 2.842793
v -19.521725 4.354642 2.833036
v -19.502956 4.386959 2.847705
v -19.417168 4.487694 2.920496
v -19.405024 4.494717 2.929987
v -19.538187 4.332955 2.932744
v -19.540236 4.344488 2.926832
v -19.558340 4.350021 2.883301
v -19.566610 4.354642 2.890465
v -19.545444 4.378072 2.908640
v -19.527191 4.356537 2.838629
v -19.508251 4.395239 2.848350
v -19.424837 4.484421 2.918648
v -19.401379 4.497990 2.936983
v -19.443949 4.494717 2.979789
v -19.540466 4.337179 2.932538
v -19.436279 4.497990 2.981635
v -19.539490 4.334993 2.932903
v -19.540937 4.343144 2.928723
v -19.562504 4.356537 2.883809
v -19.547844 4.386959 2.905133
v -19.524122 4.363528 2.829529
v -19.514496 4.402352 2.851079
v -19.432898 4.481611 2.918948
v -19.399723 4.500799 2.944877
v -19.450708 4.491206 2.975921
v -19.541058 4.339363 2.931676
v -19.428219 4.500799 2.981335
v -19.541218 4.341398 2.930375
v -19.570593 4.363528 2.888983
v -19.548496 4.395239 2.899840
v -19.529078 4.363528 2.835869
v -19.532213 4.370517 2.834704
v -19.528107 4.372412 2.828048
v -19.521267 4.407806 2.855704
v -19.440800 4.479455 2.921373
v -19.400167 4.502955 2.953130
v -19.430559 4.491206 2.950141
v -19.456093 4.487694 2.970298
v -19.420317 4.502955 2.978910
v -19.565638 4.363528 2.882643
v -19.547356 4.402352 2.893120
v -19.536377 4.377033 2.835213
v -19.533400 4.380692 2.828694
v -19.528103 4.411236 2.861912
v -19.448002 4.478101 2.925758
v -19.402683 4.504313 2.961179
v -19.459736 4.484421 2.963300
v -19.413115 4.504313 2.974524
v -19.572992 4.372412 2.885477
v -19.544502 4.407806 2.885432
v -19.541290 4.382627 2.837359
v -19.539646 4.387805 2.831422
v -19.534536 4.412408 2.869277
v -19.454016 4.477636 2.931806
v -19.407101 4.504774 2.968476
v -19.567526 4.370517 2.879884
v -19.540131 4.411236 2.877300
v -19.568037 4.377033 2.875720
v -19.573645 4.380692 2.880184
v -19.546618 4.386918 2.840998
v -19.551994 4.389616 2.845882
v -19.546417 4.393260 2.836048
v -19.565279 4.396691 2.857644
v -19.553251 4.396691 2.842256
v -19.458433 4.478101 2.939103
v -19.461393 4.481611 2.955406
v -19.567141 4.382627 2.870433
v -19.572504 4.387805 2.873463
v -19.557056 4.390538 2.851676
v -19.569653 4.393260 2.865775
v -19.559685 4.397861 2.849621
v -19.460949 4.479455 2.947152
v -19.561457 4.389616 2.857988
v -19.564898 4.386918 2.864385
v -19.448473 4.478101 2.926360
v -19.454016 4.478101 2.931806
v -19.441708 4.478101 2.922534
v -19.457964 4.478101 2.938503
v -19.412645 4.478101 2.973924
v -19.407101 4.478101 2.968476
v -19.403154 4.478101 2.961781
v -19.434181 4.478101 2.920590
v -19.460041 4.478101 2.945992
v -19.401075 4.478101 2.954292
v -19.419411 4.478101 2.977750
v -19.460110 4.478101 2.953765
v -19.426407 4.478101 2.920659
v -19.401007 4.478101 2.946519
v -19.426937 4.478101 2.979694
v -19.458166 4.478101 2.961290
v -19.402950 4.478101 2.938993
v -19.454340 4.478101 2.968055
v -19.418919 4.478101 2.922737
v -19.434708 4.478101 2.979625
v -19.448893 4.478101 2.973599
v -19.412224 4.478101 2.926683
v -19.406776 4.478101 2.932228
v -19.442196 4.478101 2.977546
v -19.525862 4.341716 2.866307
v -19.530262 4.340794 2.872618
v -19.522421 4.344414 2.859909
v -19.535324 4.341716 2.878413
v -19.520178 4.348707 2.853860
v -19.540701 4.344414 2.883296
v -19.519281 4.354299 2.848575
v -19.546030 4.348707 2.886934
v -19.550941 4.354299 2.889082
v -19.519794 4.360815 2.844410
v -19.555109 4.360815 2.889590
v -19.521681 4.367807 2.841650
v -19.558241 4.367807 2.888425
v -19.524815 4.374795 2.840486
v -19.528980 4.381311 2.840994
v -19.560127 4.374795 2.885666
v -19.533894 4.386903 2.843140
v -19.539221 4.391196 2.846779
v -19.560640 4.381311 2.881502
v -19.559744 4.386903 2.876214
v -19.544600 4.393895 2.851663
v -19.549660 4.394815 2.857457
v -19.557499 4.391196 2.870166
v -19.554062 4.393895 2.863769
v -19.530308 4.337179 2.919539
v -19.539661 4.338879 2.930248
v -19.531069 4.338879 2.919256
v -19.539787 4.340462 2.929236
v -19.532084 4.340462 2.919380
v -19.539568 4.341824 2.927949
v -19.533279 4.341824 2.919903
v -19.529724 4.333890 2.921225
v -19.538441 4.335476 2.931202
v -19.529850 4.335476 2.920210
v -19.539202 4.337179 2.930920
v -19.539022 4.342869 2.926477
v -19.534575 4.342869 2.920787
v -19.533628 4.330829 2.928484
v -19.531326 4.330829 2.925538
v -19.532394 4.330605 2.927074
v -19.538185 4.343525 2.924922
v -19.535883 4.343525 2.921975
v -19.537115 4.343749 2.923385
v -19.529943 4.332530 2.922510
v -19.537426 4.333890 2.931080
v -19.534935 4.331485 2.929671
v -19.530489 4.331485 2.923981
v -19.536232 4.332530 2.930557
v -19.406776 4.478101 2.932228
v -19.402950 4.478101 2.938993
v -19.401007 4.478101 2.946519
v -19.430559 4.491206 2.950141
v -19.430557 4.648317 2.950141
vt 0.835732 0.585381
vt 0.818492 0.621154
vt 0.813624 0.590277
vt 0.802446 0.632364
vt 0.793014 0.604676
vt 0.918066 0.767133
vt 0.918132 0.692427
vt 0.921008 0.729783
vt 0.909505 0.801931
vt 0.909629 0.657612
vt 0.857831 0.590321
vt 0.852909 0.621187
vt 0.835705 0.617344
vt 0.788661 0.650206
vt 0.775306 0.627594
vt 0.895907 0.831807
vt 0.902097 0.729765
vt 0.896083 0.627710
vt 0.771410 0.700558
vt 0.761708 0.657470
vt 0.761584 0.801791
vt 0.753148 0.692270
vt 0.878416 0.604757
vt 0.868935 0.632428
vt 0.778076 0.673466
vt 0.908365 0.662178
vt 0.894851 0.825340
vt 0.900947 0.729761
vt 0.895024 0.634170
vt 0.898740 0.702520
vt 0.893236 0.673577
vt 0.769118 0.729637
vt 0.753082 0.766976
vt 0.882690 0.650298
vt 0.750204 0.729620
vt 0.898690 0.756998
vt 0.899855 0.700682
vt 0.771358 0.758721
vt 0.835510 0.842059
vt 0.813384 0.869082
vt 0.818306 0.838215
vt 0.802278 0.826975
vt 0.792799 0.854644
vt 0.788524 0.809105
vt 0.775131 0.831693
vt 0.777977 0.785825
vt 0.893141 0.785935
vt 0.878199 0.854725
vt 0.899805 0.758844
vt 0.868767 0.827039
vt 0.857591 0.869124
vt 0.852721 0.838247
vt 0.835482 0.874020
vt 0.882552 0.809195
vt 0.961902 0.204005
vt 0.939761 0.117528
vt 0.954360 0.158415
vt 0.961872 0.251189
vt 0.919099 0.084129
vt 0.954273 0.296755
vt 0.893782 0.060496
vt 0.939622 0.337594
vt 0.865537 0.048238
vt 0.918918 0.370925
vt 0.836287 0.048191
vt 0.893572 0.394476
vt 0.808026 0.060357
vt 0.865311 0.406643
vt 0.782679 0.083908
vt 0.836061 0.406596
vt 0.761975 0.117240
vt 0.807815 0.394338
vt 0.747324 0.158080
vt 0.782498 0.370704
vt 0.739725 0.203644
vt 0.761837 0.337305
vt 0.739696 0.250829
vt 0.747237 0.296418
vt 0.587072 0.638671
vt 0.565488 0.899262
vt 0.565720 0.643166
vt 0.545606 0.886000
vt 0.545815 0.656393
vt 0.528544 0.864917
vt 0.528714 0.677443
vt 0.628294 0.656467
vt 0.608180 0.899300
vt 0.608414 0.643206
vt 0.586831 0.903797
vt 0.515460 0.837451
vt 0.515583 0.704885
vt 0.507250 0.805471
vt 0.507314 0.736850
vt 0.772244 0.702404
vt 0.772192 0.756882
vt 0.769987 0.729641
vt 0.645357 0.677551
vt 0.628086 0.886075
vt 0.666651 0.736996
vt 0.666589 0.805618
vt 0.658321 0.837580
vt 0.658440 0.705016
vt 0.645186 0.865023
vt 0.381119 0.577409
vt 0.367980 0.675230
vt 0.363457 0.668561
vt 0.047160 0.461914
vt 0.030913 0.545763
vt 0.043000 0.455780
vt 0.026753 0.539628
vt 0.038428 0.452711
vt 0.376149 0.574074
vt 0.359691 0.659014
vt 0.385641 0.584078
vt 0.372950 0.678566
vt 0.023288 0.530846
vt 0.033756 0.452918
vt 0.050624 0.470697
vt 0.035485 0.548831
vt 0.371070 0.574298
vt 0.356937 0.647238
vt 0.389408 0.593625
vt 0.378029 0.678341
vt 0.366228 0.578069
vt 0.053158 0.481529
vt 0.040157 0.548624
vt 0.355383 0.634037
vt 0.392162 0.605401
vt 0.382871 0.674571
vt 0.361953 0.585127
vt 0.054587 0.493672
vt 0.044611 0.545156
vt 0.393715 0.618602
vt 0.387145 0.667513
vt 0.355136 0.620310
vt 0.054814 0.506299
vt 0.048543 0.538664
vt 0.051686 0.529589
vt 0.358537 0.594992
vt 0.053825 0.518550
vt 0.356212 0.606992
vt 0.687438 0.141050
vt 0.692541 0.141276
vt 0.692514 0.149770
vt 0.622994 0.330654
vt 0.623009 0.335788
vt 0.613860 0.335816
vt 0.687411 0.149545
vt 0.613845 0.330682
vt 0.328864 0.250039
vt 0.324431 0.240939
vt 0.328893 0.240890
vt 0.324402 0.250088
vt 0.623012 0.325703
vt 0.682631 0.148836
vt 0.678523 0.139197
vt 0.682656 0.140341
vt 0.613845 0.335816
vt 0.618975 0.344505
vt 0.613871 0.344311
vt 0.690182 0.357800
vt 0.685076 0.348635
vt 0.690210 0.348651
vt 0.695133 0.357849
vt 0.695161 0.348700
vt 0.613863 0.325731
vt 0.678496 0.147691
vt 0.685048 0.357784
vt 0.618949 0.336011
vt 0.680080 0.357801
vt 0.675646 0.348701
vt 0.680108 0.348652
vt 0.699563 0.357927
vt 0.706306 0.147561
vt 0.702321 0.140249
vt 0.706331 0.139067
vt 0.702294 0.148743
vt 0.671938 0.348669
vt 0.667990 0.357833
vt 0.667961 0.348681
vt 0.671966 0.357821
vt 0.699591 0.348778
vt 0.675618 0.357850
vt 0.654637 0.147219
vt 0.650698 0.156382
vt 0.650670 0.147231
vt 0.623027 0.330813
vt 0.632164 0.335647
vt 0.623012 0.335619
vt 0.648303 0.348742
vt 0.644164 0.357906
vt 0.644136 0.348754
vt 0.671993 0.348779
vt 0.654665 0.156370
vt 0.632194 0.345557
vt 0.623028 0.340784
vt 0.632179 0.340756
vt 0.623043 0.325703
vt 0.632179 0.330841
vt 0.648331 0.357893
vt 0.671966 0.357928
vt 0.623042 0.345585
vt 0.623012 0.335675
vt 0.632194 0.325731
vt 0.653104 0.348727
vt 0.653132 0.357879
vt 0.678469 0.147145
vt 0.674321 0.156310
vt 0.674293 0.147158
vt 0.678496 0.156297
vt 0.664405 0.156340
vt 0.669486 0.147173
vt 0.669514 0.156325
vt 0.658213 0.348711
vt 0.658241 0.357863
vt 0.329084 0.231723
vt 0.324431 0.240890
vt 0.324402 0.231738
vt 0.664376 0.147189
vt 0.329112 0.240875
vt 0.474926 0.258966
vt 0.498484 0.261019
vt 0.476257 0.263925
vt 0.495631 0.250390
vt 0.472361 0.254519
vt 0.476264 0.269057
vt 0.468737 0.250886
vt 0.474945 0.274012
vt 0.408630 0.289008
vt 0.388257 0.280715
vt 0.389569 0.275753
vt 0.355148 0.261742
vt 0.490133 0.240858
vt 0.385731 0.285183
vt 0.352621 0.266210
vt 0.498497 0.272018
vt 0.411443 0.278372
vt 0.358716 0.258073
vt 0.389577 0.270635
vt 0.418007 0.282543
vt 0.437381 0.269008
vt 0.438712 0.273967
vt 0.441277 0.278414
vt 0.423505 0.292076
vt 0.444901 0.282047
vt 0.464300 0.248315
vt 0.382162 0.288852
vt 0.351309 0.271172
vt 0.403216 0.298584
vt 0.472391 0.278452
vt 0.337663 0.248341
vt 0.388281 0.265710
vt 0.363083 0.255453
vt 0.437375 0.263877
vt 0.449338 0.284619
vt 0.459354 0.246980
vt 0.332248 0.257917
vt 0.377795 0.291472
vt 0.468775 0.282077
vt 0.411461 0.267402
vt 0.415154 0.271915
vt 0.431273 0.299863
vt 0.351301 0.276289
vt 0.454236 0.246974
vt 0.395567 0.306448
vt 0.367889 0.292935
vt 0.372926 0.292864
vt 0.464346 0.284637
vt 0.367952 0.254060
vt 0.385770 0.261313
vt 0.345311 0.240477
vt 0.438693 0.258922
vt 0.454283 0.285953
vt 0.352597 0.281215
vt 0.482364 0.233070
vt 0.363024 0.291679
vt 0.329435 0.268552
vt 0.495670 0.282639
vt 0.382213 0.257744
vt 0.372990 0.253989
vt 0.441247 0.254481
vt 0.459403 0.285959
vt 0.449292 0.248296
vt 0.386206 0.312064
vt 0.329418 0.279522
vt 0.358666 0.289181
vt 0.355109 0.285612
vt 0.354672 0.234860
vt 0.408683 0.256845
vt 0.440782 0.305374
vt 0.377854 0.255246
vt 0.444863 0.250856
vt 0.415141 0.260915
vt 0.417967 0.250294
vt 0.472856 0.227559
vt 0.332196 0.290079
vt 0.365107 0.231875
vt 0.403299 0.247420
vt 0.490196 0.292158
vt 0.423442 0.240775
vt 0.462254 0.224699
vt 0.375771 0.315050
vt 0.375906 0.231723
vt 0.451384 0.308234
vt 0.431191 0.233007
vt 0.337579 0.299504
vt 0.395675 0.239770
vt 0.482448 0.299926
vt 0.451281 0.224685
vt 0.364972 0.315201
vt 0.462357 0.308248
vt 0.386332 0.234416
vt 0.345203 0.307154
vt 0.440686 0.227519
vt 0.472952 0.305414
vt 0.354546 0.312508
vt 0.949356 0.948159
vt 0.971707 0.921591
vt 0.967365 0.934117
vt 0.062608 0.738399
vt 0.091570 0.781170
vt 0.057243 0.744773
vt 0.030342 0.755880
vt 0.051407 0.747123
vt 0.955795 0.947870
vt 0.943058 0.943927
vt 0.974667 0.906354
vt 0.959698 0.930017
vt 0.067138 0.728433
vt 0.026719 0.774545
vt 0.961938 0.943081
vt 0.104438 0.244369
vt 0.075474 0.260682
vt 0.075194 0.256443
vt 0.098094 0.246923
vt 0.074519 0.252511
vt 0.963968 0.922965
vt 0.070522 0.715556
vt 0.025284 0.775123
vt 0.071255 0.276734
vt 0.072689 0.275030
vt 0.027584 0.746825
vt 0.045499 0.745286
vt 0.075341 0.264940
vt 0.073497 0.249153
vt 0.954866 0.933784
vt 0.967383 0.913110
vt 0.088334 0.594759
vt 0.012872 0.784605
vt 0.073900 0.272367
vt 0.072196 0.246599
vt 0.091671 0.244926
vt 0.070705 0.245023
vt 0.074804 0.268925
vt 0.085607 0.238516
vt 0.069125 0.244532
vt 0.080314 0.228128
vt 0.076155 0.214472
vt 0.949799 0.934012
vt 0.976044 0.889447
vt 0.072532 0.700644
vt 0.091686 0.781701
vt 0.271725 0.585717
vt 0.275072 0.772306
vt 0.069695 0.277362
vt 0.056202 0.287670
vt 0.068116 0.276871
vt 0.095089 0.380683
vt 0.271768 0.584278
vt 0.099077 0.593936
vt 0.937331 0.935464
vt 0.052683 0.085023
vt 0.969712 0.901123
vt 0.073029 0.684715
vt 0.088340 0.595111
vt 0.264273 0.157748
vt 0.175575 0.214587
vt 0.085124 0.164787
vt 0.066625 0.275295
vt 0.267779 0.371024
vt 0.091700 0.781700
vt 0.278308 0.960243
vt 0.094914 0.968293
vt 0.065324 0.272741
vt 0.073411 0.198477
vt 0.944845 0.930683
vt 0.067566 0.245160
vt 0.970796 0.887822
vt 0.975744 0.872020
vt 0.071980 0.668853
vt 0.010151 0.785054
vt 0.094626 0.952849
vt 0.016530 0.956575
vt 0.180578 0.216208
vt 0.170632 0.216599
vt 0.275095 0.773650
vt 0.088246 0.781328
vt 0.064302 0.269384
vt 0.066132 0.246864
vt 0.940339 0.924025
vt 0.932566 0.923346
vt 0.072271 0.181233
vt 0.970560 0.874112
vt 0.069456 0.654139
vt 0.185299 0.221353
vt 0.166086 0.222108
vt 0.088630 0.378064
vt 0.172325 0.319604
vt 0.063347 0.261212
vt 0.167604 0.314459
vt 0.063627 0.265451
vt 0.064921 0.249527
vt 0.936591 0.914491
vt 0.072811 0.163915
vt 0.973788 0.855262
vt 0.065630 0.641577
vt 0.189418 0.229670
vt 0.162246 0.230738
vt 0.177328 0.321225
vt 0.063480 0.256955
vt 0.163485 0.306142
vt 0.064017 0.252969
vt 0.929086 0.908399
vt 0.074996 0.147705
vt 0.969021 0.860929
vt 0.966284 0.849170
vt 0.970309 0.840315
vt 0.060762 0.632021
vt 0.192653 0.240593
vt 0.159374 0.241900
vt 0.176452 0.267906
vt 0.182271 0.319213
vt 0.160250 0.295219
vt 0.933853 0.902732
vt 0.078675 0.133706
vt 0.962534 0.839636
vt 0.965543 0.828197
vt 0.055183 0.626125
vt 0.194784 0.253377
vt 0.157666 0.254835
vt 0.186817 0.313704
vt 0.158119 0.282435
vt 0.927130 0.891641
vt 0.083599 0.122873
vt 0.958029 0.832978
vt 0.959816 0.819734
vt 0.049275 0.624288
vt 0.195665 0.267151
vt 0.157238 0.268661
vt 0.932314 0.889548
vt 0.089432 0.115943
vt 0.932078 0.875839
vt 0.926830 0.874214
vt 0.953075 0.829649
vt 0.948008 0.829876
vt 0.953519 0.815502
vt 0.935509 0.829544
vt 0.947079 0.815791
vt 0.009635 0.598195
vt 0.195238 0.280977
vt 0.190657 0.305074
vt 0.095776 0.113389
vt 0.933162 0.862537
vt 0.928207 0.857307
vt 0.943176 0.833644
vt 0.931168 0.842071
vt 0.940936 0.820580
vt 0.193529 0.293912
vt 0.938906 0.840696
vt 0.935491 0.850551
vt 0.687758 0.036687
vt 0.692860 0.036912
vt 0.697616 0.141003
vt 0.682977 0.035978
vt 0.697937 0.036639
vt 0.680453 0.236244
vt 0.685420 0.236227
vt 0.690555 0.236244
vt 0.650325 0.206582
vt 0.659336 0.195698
vt 0.658819 0.206634
vt 0.678843 0.034833
vt 0.702641 0.035886
vt 0.650842 0.195646
vt 0.650877 0.217464
vt 0.695506 0.236292
vt 0.675991 0.236293
vt 0.659371 0.217516
vt 0.660887 0.185455
vt 0.671592 0.236227
vt 0.706652 0.034703
vt 0.652461 0.227551
vt 0.652393 0.185403
vt 0.667617 0.236239
vt 0.699936 0.236370
vt 0.672338 0.236371
vt 0.439744 0.347293
vt 0.448929 0.336316
vt 0.448893 0.347321
vt 0.654292 0.034777
vt 0.650325 0.034789
vt 0.660955 0.227603
vt 0.663367 0.176601
vt 0.663280 0.348696
vt 0.439779 0.336288
vt 0.647958 0.236300
vt 0.643791 0.236312
vt 0.448892 0.325669
vt 0.439640 0.357906
vt 0.448788 0.357934
vt 0.658967 0.034762
vt 0.659311 0.147204
vt 0.654969 0.236156
vt 0.654873 0.176549
vt 0.662935 0.236253
vt 0.678123 0.034703
vt 0.673948 0.034716
vt 0.439743 0.325641
vt 0.439473 0.367402
vt 0.664031 0.034747
vt 0.663463 0.236209
vt 0.672772 0.185100
vt 0.663646 0.176549
vt 0.672798 0.176577
vt 0.657867 0.236269
vt 0.652759 0.236285
vt 0.448787 0.316105
vt 0.448622 0.367431
vt 0.669141 0.034731
vt 0.583369 0.334205
vt 0.574191 0.325731
vt 0.583342 0.325703
vt 0.663620 0.185071
vt 0.439638 0.316077
vt 0.663491 0.227208
vt 0.672615 0.236168
vt 0.663463 0.236139
vt 0.574217 0.334233
vt 0.448620 0.308276
vt 0.439471 0.308248
vt 0.672642 0.227236
vt 0.672741 0.195134
vt 0.583525 0.385287
vt 0.574346 0.376366
vt 0.583498 0.376337
vt 0.583399 0.344225
vt 0.574373 0.385316
vt 0.663522 0.216917
vt 0.663589 0.195105
vt 0.672674 0.216945
vt 0.574315 0.366063
vt 0.574248 0.344253
vt 0.583466 0.366035
vt 0.672707 0.205995
vt 0.663556 0.205968
vt 0.583433 0.355082
vt 0.574281 0.355110
vt 0.388304 0.370676
vt 0.393116 0.309598
vt 0.394210 0.368091
vt 0.387210 0.312183
vt 0.399485 0.308473
vt 0.383263 0.374544
vt 0.400579 0.366966
vt 0.382169 0.316051
vt 0.405883 0.308885
vt 0.406977 0.367377
vt 0.411873 0.310804
vt 0.412967 0.369297
vt 0.417048 0.314100
vt 0.418142 0.372594
vt 0.416283 0.204096
vt 0.410009 0.142537
vt 0.415161 0.141984
vt 0.412416 0.279830
vt 0.416525 0.217810
vt 0.417584 0.279921
vt 0.411131 0.204650
vt 0.040655 0.354192
vt 0.045391 0.336538
vt 0.045685 0.354382
vt 0.411356 0.217720
vt 0.035638 0.354777
vt 0.040362 0.336348
vt 0.404033 0.143024
vt 0.050091 0.337490
vt 0.050384 0.355335
vt 0.406429 0.279896
vt 0.030976 0.356098
vt 0.035345 0.336933
vt 0.405155 0.205136
vt 0.054140 0.339140
vt 0.405370 0.217786
vt 0.030682 0.338253
vt 0.054434 0.356984
vt 0.397640 0.143409
vt 0.400033 0.280115
vt 0.026986 0.358063
vt 0.050795 0.375755
vt 0.054455 0.357054
vt 0.054767 0.375321
vt 0.050483 0.357487
vt 0.398762 0.205521
vt 0.026692 0.340219
vt 0.391266 0.143666
vt 0.398973 0.218004
vt 0.050798 0.376115
vt 0.055111 0.394415
vt 0.051128 0.394383
vt 0.046145 0.376124
vt 0.045833 0.357857
vt 0.054781 0.376147
vt 0.392388 0.205778
vt 0.385345 0.143778
vt 0.393662 0.280471
vt 0.046140 0.376203
vt 0.046470 0.394471
vt 0.041132 0.376405
vt 0.386467 0.205890
vt 0.380282 0.143737
vt 0.392602 0.218361
vt 0.041125 0.376405
vt 0.387750 0.280941
vt 0.040821 0.358137
vt 0.381404 0.205849
vt 0.414054 0.077226
vt 0.409980 0.140394
vt 0.408983 0.079725
vt 0.041455 0.394674
vt 0.382702 0.281492
vt 0.386690 0.218830
vt 0.036100 0.376577
vt 0.035788 0.358309
vt 0.031390 0.376629
vt 0.031078 0.358361
vt 0.415052 0.137895
vt 0.404054 0.142072
vt 0.403056 0.081402
vt 0.036096 0.376708
vt 0.384312 0.080694
vt 0.380162 0.139266
vt 0.379165 0.078596
vt 0.381642 0.219382
vt 0.027324 0.376558
vt 0.027012 0.358290
vt 0.397677 0.142816
vt 0.396679 0.082146
vt 0.036426 0.394976
vt 0.390286 0.081904
vt 0.385310 0.141363
vt 0.030296 0.317311
vt 0.026547 0.331921
vt 0.026225 0.314717
vt 0.030618 0.334515
vt 0.391283 0.142574
vt 0.031394 0.377091
vt 0.031724 0.395359
vt 0.027341 0.377526
vt 0.027671 0.395795
vt 0.035009 0.318821
vt 0.035331 0.336025
vt 0.040042 0.319144
vt 0.040364 0.336348
vt 0.050021 0.333429
vt 0.053665 0.313182
vt 0.053986 0.330386
vt 0.049699 0.316225
vt 0.045052 0.318259
vt 0.045374 0.335463
usemtl material_3_16
s off
f 112/1 276/2 103/3
f 103/3 278/4 113/5
f 137/6 110/7 116/8
f 110/7 145/9 117/10
f 120/11 283/12 112/1
f 112/1 274/13 276/2
f 103/3 276/2 278/4
f 113/5 278/4 280/14
f 113/5 280/14 121/15
f 110/7 137/6 145/9
f 117/10 145/9 147/16
f 289/17 126/18 117/10
f 121/15 291/19 118/20
f 118/20 157/21 127/22
f 128/23 281/24 120/11
f 120/11 281/24 283/12
f 112/1 283/12 274/13
f 121/15 280/14 286/25
f 117/26 147/27 289/28
f 126/29 289/28 288/30
f 126/18 296/31 128/23
f 121/15 286/25 291/19
f 118/20 291/19 292/32
f 292/32 157/21 118/20
f 127/22 157/21 150/33
f 128/23 293/34 281/24
f 127/22 150/33 130/35
f 289/28 147/27 287/36
f 126/18 288/37 296/31
f 128/23 296/31 293/34
f 290/38 157/21 292/32
f 284/39 177/40 275/41
f 275/41 177/40 277/42
f 277/42 179/43 279/44
f 279/44 169/45 285/46
f 295/47 147/16 156/48
f 287/49 147/16 295/47
f 290/38 169/45 157/21
f 294/50 168/51 282/52
f 282/52 166/53 284/39
f 284/39 166/53 177/40
f 277/42 177/40 179/43
f 279/44 179/43 169/45
f 285/46 169/45 290/38
f 294/50 156/48 168/51
f 295/47 156/48 297/54
f 297/54 156/48 294/50
f 282/52 168/51 166/53
usemtl material_4_16
f 253/55 250/56 251/57
f 250/56 255/58 252/59
f 250/56 253/55 255/58
f 252/59 255/58 257/60
f 252/59 257/60 254/61
f 254/61 257/60 258/62
f 254/61 258/62 256/63
f 256/63 258/62 260/64
f 256/63 260/64 259/65
f 259/65 260/64 262/66
f 259/65 262/66 261/67
f 261/67 262/66 265/68
f 261/67 265/68 263/69
f 263/69 265/68 268/70
f 263/69 268/70 264/71
f 264/71 269/72 266/73
f 264/71 268/70 269/72
f 266/73 269/72 272/74
f 266/73 272/74 267/75
f 267/75 272/74 273/76
f 267/75 273/76 270/77
f 270/77 273/76 271/78
usemtl material_1_16
f 274/79 275/80 276/81
f 276/81 277/82 278/83
f 278/83 279/84 280/85
f 281/86 282/87 283/88
f 283/88 284/89 274/79
f 274/79 284/89 275/80
f 276/81 275/80 277/82
f 278/83 277/82 279/84
f 280/85 279/84 285/90
f 280/85 285/90 286/91
f 287/36 288/30 289/28
f 286/91 290/92 291/93
f 291/94 290/95 292/96
f 293/97 294/98 281/86
f 281/86 294/98 282/87
f 283/88 282/87 284/89
f 286/91 285/90 290/92
f 288/99 287/100 295/101
f 288/99 295/101 296/102
f 296/102 297/103 293/97
f 293/97 297/103 294/98
f 296/102 295/101 297/103
usemtl material_2_16
f 231/104 227/105 226/106
f 230/107 227/108 231/109
f 231/109 226/110 232/111
f 232/112 226/106 228/113
f 230/114 229/115 227/105
f 232/111 228/116 235/117
f 236/118 229/119 230/107
f 235/120 228/113 233/121
f 236/122 234/123 229/115
f 235/120 233/121 239/124
f 240/125 234/126 236/118
f 239/124 233/121 238/127
f 240/128 237/129 234/123
f 239/124 238/127 242/130
f 245/131 237/132 240/125
f 245/133 241/134 237/129
f 242/130 238/127 244/135
f 249/136 241/137 245/131
f 249/136 243/138 241/137
f 242/130 244/135 248/139
f 243/138 249/136 246/140
f 248/139 244/135 247/141
s 1
f 3/142 1/143 10/144
f 5/145 1/146 10/147
f 3/142 10/144 11/148
f 5/145 10/147 14/149
f 19/150 3/151 6/152
f 3/151 19/150 11/153
f 14/149 7/154 5/145
f 19/155 8/156 6/157
f 28/158 22/159 21/160
f 12/161 22/162 23/163
f 18/164 23/163 25/165
f 7/154 14/149 27/166
f 8/156 19/155 32/167
f 22/162 12/161 15/168
f 23/163 18/164 12/161
f 22/159 28/158 15/169
f 28/170 34/171 21/172
f 25/165 33/173 18/164
f 38/174 7/175 26/176
f 7/175 38/174 27/177
f 8/178 50/179 30/180
f 50/179 8/178 32/181
f 33/173 25/165 35/182
f 34/171 28/170 43/183
f 36/184 38/185 26/186
f 39/187 50/188 30/189
f 53/190 33/191 35/192
f 43/183 52/193 34/171
f 38/185 36/184 47/194
f 36/195 46/196 44/197
f 48/198 59/199 39/187
f 50/188 39/187 59/199
f 33/191 53/190 49/200
f 52/193 43/183 54/201
f 46/196 36/195 47/202
f 56/203 44/197 46/196
f 59/199 48/198 71/204
f 62/205 49/200 53/190
f 49/200 62/205 60/206
f 52/207 67/208 61/209
f 67/208 52/207 54/210
f 44/197 56/203 63/188
f 56/211 72/212 66/213
f 48/214 60/206 62/205
f 60/206 48/214 71/215
f 72/216 67/217 61/218
f 72/212 56/211 63/219
f 67/217 72/216 66/220
usemtl material_0_16
s off
f 1/221 2/222 3/223
f 4/224 1/221 5/225
f 1/221 4/224 2/222
f 3/223 2/222 6/226
f 7/227 4/224 5/225
f 6/226 2/222 8/228
f 9/229 10/230 11/231
f 10/230 12/232 11/231
f 7/227 13/233 4/224
f 9/229 14/234 10/230
f 14/234 15/235 10/230
f 8/228 2/222 16/236
f 9/229 11/231 17/237
f 10/230 15/235 12/232
f 11/231 12/232 18/238
f 17/237 11/231 19/239
f 11/231 18/238 19/239
f 20/240 21/241 22/242
f 20/240 22/242 23/243
f 24/244 23/243 25/245
f 26/246 13/233 7/227
f 9/229 27/247 14/234
f 14/234 28/248 15/235
f 29/249 27/247 9/229
f 8/228 16/236 30/250
f 15/235 31/251 12/232
f 12/232 31/251 18/238
f 17/237 19/239 32/252
f 19/239 18/238 33/253
f 20/240 34/254 21/241
f 20/240 23/243 24/244
f 24/244 25/245 35/255
f 27/247 28/248 14/234
f 36/256 13/233 26/246
f 28/248 37/257 15/235
f 29/249 38/258 27/247
f 30/250 16/236 39/259
f 19/239 33/253 32/252
f 15/235 37/257 31/251
f 18/238 31/251 33/253
f 17/237 32/252 40/260
f 41/261 34/254 20/240
f 24/244 35/255 42/262
f 27/247 43/263 28/248
f 38/258 43/263 27/247
f 44/264 13/233 36/256
f 45/265 46/266 29/249
f 43/263 37/257 28/248
f 29/249 47/267 38/258
f 39/259 16/236 48/268
f 32/252 33/253 49/269
f 40/260 32/252 50/270
f 32/252 49/269 50/270
f 33/253 31/251 51/271
f 41/261 52/272 34/254
f 42/262 35/255 53/273
f 38/258 54/274 43/263
f 44/264 55/275 13/233
f 46/266 45/265 56/276
f 29/249 46/266 47/267
f 43/263 57/277 37/257
f 42/262 16/236 58/278
f 47/267 54/274 38/258
f 42/262 48/268 16/236
f 33/253 51/271 49/269
f 40/260 50/270 59/279
f 50/270 49/269 60/280
f 41/261 61/281 52/272
f 42/262 53/273 62/282
f 54/274 57/277 43/263
f 63/283 55/275 44/264
f 64/284 65/285 45/265
f 45/265 65/285 56/276
f 66/286 46/266 56/276
f 46/266 67/287 47/267
f 40/260 68/288 69/289
f 42/262 58/278 70/290
f 47/267 67/287 54/274
f 42/262 62/282 48/268
f 50/270 60/280 59/279
f 49/269 51/271 60/280
f 40/260 59/279 71/291
f 41/261 72/292 61/281
f 40/260 51/271 68/288
f 67/287 57/277 54/274
f 73/293 55/275 63/283
f 74/294 75/295 55/275
f 64/284 76/296 65/285
f 56/276 65/285 66/286
f 46/266 66/286 67/287
f 69/289 68/288 77/297
f 69/289 77/297 78/298
f 70/290 58/278 79/299
f 59/279 60/280 71/291
f 60/280 51/271 71/291
f 40/260 71/291 51/271
f 73/293 72/292 41/261
f 66/286 57/277 67/287
f 74/294 55/275 73/293
f 72/292 73/293 63/283
f 80/300 75/295 74/294
f 80/300 81/301 75/295
f 82/302 76/296 64/284
f 66/286 65/285 57/277
f 78/298 77/297 83/303
f 70/290 79/299 84/304
f 85/305 81/301 80/300
f 82/302 86/306 76/296
f 78/298 83/303 87/307
f 84/304 79/299 88/308
f 85/305 89/309 81/301
f 90/310 86/306 82/302
f 84/304 88/308 91/311
f 87/307 83/303 92/312
f 90/310 93/313 86/306
f 89/309 85/305 94/314
f 91/311 88/308 95/315
f 93/313 90/310 96/316
f 97/317 98/318 99/319
f 100/320 101/321 102/322
f 102/322 103/323 104/324
f 99/319 105/325 97/317
f 98/318 97/317 106/326
f 107/327 98/318 108/328
f 109/329 101/321 100/320
f 102/322 101/321 110/330
f 105/325 99/319 111/331
f 102/332 112/333 103/334
f 104/335 103/334 113/336
f 98/318 106/326 108/328
f 107/327 108/328 114/337
f 115/338 101/321 109/329
f 110/330 101/321 116/339
f 102/332 110/340 117/341
f 104/324 118/342 119/343
f 102/332 120/344 112/333
f 104/335 113/336 121/345
f 108/328 106/326 122/346
f 107/327 114/337 123/347
f 101/321 115/338 124/348
f 125/349 116/339 101/321
f 102/332 117/341 126/350
f 118/351 104/335 121/345
f 119/352 118/351 127/353
f 102/332 128/354 120/344
f 119/352 127/353 129/355
f 130/356 131/357 129/355
f 130/356 132/358 131/357
f 122/346 106/326 133/359
f 107/327 123/347 134/360
f 124/348 115/338 135/361
f 136/362 101/363 124/364
f 116/365 125/366 137/367
f 101/368 138/369 125/370
f 102/332 126/350 128/354
f 129/355 127/353 130/356
f 133/359 106/326 139/371
f 130/356 140/372 132/358
f 134/360 123/347 141/373
f 124/348 135/361 142/374
f 101/363 136/362 143/375
f 124/376 144/377 136/378
f 137/367 125/366 145/379
f 138/369 101/368 143/380
f 146/381 125/382 138/383
f 145/379 125/366 147/384
f 132/358 140/372 148/385
f 133/359 139/371 149/386
f 150/387 140/372 130/356
f 134/360 141/373 151/388
f 134/360 151/388 152/389
f 124/348 142/374 153/390
f 136/391 138/392 143/393
f 124/376 154/394 144/377
f 155/395 136/378 144/377
f 125/382 146/381 140/396
f 138/392 136/391 146/397
f 147/384 125/366 156/398
f 157/399 140/372 150/387
f 158/400 139/371 159/401
f 148/385 140/372 160/402
f 149/386 139/371 158/400
f 152/389 151/388 161/403
f 124/348 153/390 162/404
f 124/376 163/405 154/394
f 163/405 144/377 154/394
f 164/406 136/378 155/395
f 144/377 164/406 155/395
f 146/407 165/408 140/380
f 166/409 125/366 140/372
f 167/410 146/407 136/378
f 156/398 125/366 168/411
f 169/412 140/372 157/399
f 158/400 159/401 170/413
f 160/402 140/372 171/414
f 152/389 161/403 172/415
f 124/348 162/404 173/416
f 124/376 174/417 163/405
f 174/417 144/377 163/405
f 175/418 136/378 164/406
f 144/377 175/418 164/406
f 165/408 146/407 167/410
f 140/380 165/408 176/419
f 168/411 125/366 166/409
f 166/409 140/372 177/420
f 167/410 136/378 178/421
f 179/422 140/372 169/412
f 177/420 140/372 179/422
f 170/413 159/401 180/423
f 171/414 140/372 181/424
f 172/415 161/403 182/425
f 172/415 183/426 184/427
f 124/348 173/416 185/428
f 124/376 186/429 174/417
f 186/429 144/377 174/417
f 187/430 136/378 175/418
f 144/377 187/430 175/418
f 188/431 165/408 167/410
f 165/408 188/431 176/419
f 189/432 140/380 176/419
f 178/421 136/378 190/433
f 188/431 167/410 178/421
f 170/413 180/423 191/434
f 181/424 140/372 192/435
f 172/415 182/425 183/426
f 184/427 183/426 193/436
f 184/427 193/436 194/437
f 124/348 185/428 195/438
f 124/376 196/439 186/429
f 196/439 144/377 186/429
f 197/440 136/378 187/430
f 144/377 197/440 187/430
f 188/431 189/432 176/419
f 198/441 140/380 189/432
f 190/433 136/378 199/442
f 188/431 178/421 190/433
f 191/434 180/423 200/443
f 192/435 140/372 201/444
f 194/437 193/436 202/445
f 194/437 202/445 203/446
f 124/348 195/438 204/447
f 124/376 205/448 196/439
f 205/448 144/377 196/439
f 206/449 136/378 197/440
f 188/431 197/440 144/377
f 189/432 188/431 198/441
f 140/380 198/441 124/376
f 199/442 136/378 206/449
f 188/431 190/433 199/442
f 191/434 200/443 207/450
f 201/444 140/372 208/451
f 209/452 200/443 210/453
f 203/446 202/445 211/454
f 203/446 212/455 213/456
f 213/456 214/457 215/458
f 124/348 204/447 140/459
f 124/376 216/460 205/448
f 144/377 205/448 188/431
f 197/440 188/431 206/449
f 198/441 188/431 217/461
f 124/376 198/441 217/461
f 188/431 199/442 206/449
f 207/450 200/443 209/452
f 208/451 140/372 204/462
f 218/463 210/453 219/464
f 209/452 210/453 218/463
f 203/446 211/454 212/455
f 213/456 212/455 220/465
f 213/456 221/466 214/457
f 215/458 214/457 222/467
f 124/376 223/468 216/460
f 216/460 188/431 205/448
f 217/461 188/431 223/468
f 124/376 217/461 223/468
f 224/469 219/464 221/466
f 218/463 219/464 225/470
f 213/456 220/465 221/466
f 223/468 188/431 216/460
f 225/470 219/464 224/469
f 224/469 221/466 220/465
s 1
f 1/143 226/471 227/472
f 226/471 1/143 3/142
f 5/473 1/143 227/472
f 3/142 228/474 226/471
f 5/473 227/472 229/475
f 228/474 3/142 6/157
f 22/162 230/476 231/477
f 23/163 231/477 232/478
f 229/475 7/175 5/473
f 9/479 2/480 4/481
f 6/157 233/482 228/474
f 230/476 22/162 21/172
f 231/477 23/163 22/162
f 232/478 25/165 23/163
f 7/175 229/475 234/483
f 2/480 9/479 17/484
f 4/481 29/485 9/479
f 233/482 6/157 8/156
f 25/165 232/478 235/486
f 21/172 236/487 230/476
f 234/483 26/176 7/175
f 29/485 4/481 13/488
f 17/484 16/489 2/480
f 30/180 233/490 8/178
f 235/486 35/182 25/165
f 236/487 21/172 34/171
f 26/176 234/483 237/491
f 13/488 45/492 29/485
f 16/489 17/484 40/493
f 233/490 30/180 238/494
f 35/182 235/486 239/495
f 34/171 240/496 236/487
f 31/497 20/498 24/499
f 241/500 26/186 237/501
f 26/186 241/500 36/184
f 45/492 13/488 55/502
f 40/493 58/503 16/489
f 39/504 238/494 30/180
f 20/498 31/497 37/505
f 242/506 35/192 239/507
f 240/496 34/171 52/193
f 37/505 41/508 20/498
f 24/499 51/509 31/497
f 51/509 24/499 42/510
f 36/184 243/511 44/512
f 243/511 36/184 241/500
f 55/502 64/513 45/492
f 58/503 40/493 69/514
f 48/214 244/515 39/504
f 238/494 39/504 244/515
f 35/192 242/506 53/190
f 240/516 61/209 245/517
f 61/209 240/516 52/207
f 41/508 37/505 57/518
f 42/510 68/519 51/509
f 246/520 44/512 243/511
f 64/513 55/502 75/521
f 78/522 58/523 69/524
f 244/515 48/214 247/525
f 248/526 53/190 242/506
f 72/212 245/517 61/209
f 57/518 73/527 41/508
f 53/190 248/526 62/205
f 68/519 42/510 70/528
f 245/517 72/212 249/529
f 44/512 246/520 63/219
f 81/530 64/531 75/532
f 58/523 78/522 79/533
f 62/205 247/525 48/214
f 73/527 57/518 65/534
f 247/525 62/205 248/526
f 84/535 68/536 70/537
f 63/219 249/529 72/212
f 249/529 63/219 246/520
f 64/531 81/530 82/538
f 74/539 65/534 76/540
f 68/536 84/535 77/541
f 87/542 79/533 78/522
f 65/534 74/539 73/527
f 74/543 86/544 80/545
f 89/546 82/538 81/530
f 86/544 74/543 76/547
f 91/548 77/541 84/535
f 79/533 87/542 88/549
f 77/541 91/548 83/550
f 93/551 80/545 86/544
f 82/538 89/546 90/552
f 80/545 93/551 85/553
f 92/554 88/549 87/542
f 95/555 83/550 91/548
f 94/556 90/552 89/546
f 96/557 85/553 93/551
f 88/549 92/554 95/555
f 83/550 95/555 92/554
f 90/552 94/556 96/557
f 85/553 96/557 94/556
f 98/558 102/559 99/560
f 102/559 98/558 100/561
f 104/562 99/560 102/559
f 100/561 98/558 107/563
f 99/560 104/562 111/564
f 100/561 107/563 109/565
f 119/566 111/564 104/562
f 105/567 129/568 97/569
f 97/569 131/570 106/571
f 107/572 115/573 109/574
f 111/564 119/566 105/567
f 129/568 105/567 119/566
f 131/570 97/569 129/568
f 132/575 106/576 131/577
f 115/573 107/572 134/578
f 108/579 250/580 114/581
f 106/576 132/575 139/582
f 122/583 251/584 108/579
f 134/578 135/585 115/573
f 250/580 108/579 251/584
f 252/586 114/581 250/580
f 114/581 252/586 123/587
f 148/588 139/582 132/575
f 133/589 253/590 122/583
f 251/584 122/583 253/590
f 135/585 134/578 152/591
f 254/592 123/587 252/586
f 139/582 148/588 159/593
f 253/590 133/589 255/594
f 123/587 254/592 141/595
f 152/591 142/596 135/585
f 160/597 159/593 148/588
f 149/598 255/594 133/589
f 256/599 141/600 254/601
f 141/600 256/599 151/602
f 142/596 152/591 172/603
f 255/594 149/598 257/604
f 172/603 153/605 142/596
f 159/593 160/597 180/606
f 258/607 149/608 158/609
f 259/610 151/602 256/599
f 151/602 259/610 161/611
f 149/608 258/607 257/612
f 153/605 172/603 184/613
f 184/613 162/614 153/605
f 171/615 180/606 160/597
f 260/616 158/609 170/617
f 158/609 260/616 258/607
f 261/618 161/611 259/610
f 162/614 184/613 194/619
f 194/619 173/620 162/614
f 180/606 171/615 200/621
f 170/617 262/622 260/616
f 181/623 200/621 171/615
f 161/611 261/618 182/624
f 173/620 194/619 203/625
f 173/626 213/627 185/628
f 262/622 170/617 191/629
f 192/630 210/631 181/623
f 200/621 181/623 210/631
f 263/632 182/624 261/618
f 182/624 263/632 183/633
f 183/633 264/634 193/635
f 213/627 173/626 203/636
f 215/637 185/628 213/627
f 185/628 215/637 195/638
f 191/629 265/639 262/622
f 201/640 219/641 192/642
f 210/631 192/630 219/643
f 264/634 183/633 263/632
f 266/644 193/635 264/634
f 193/635 266/644 202/645
f 222/646 195/638 215/637
f 195/638 222/646 204/647
f 265/639 191/629 207/648
f 208/649 221/650 201/640
f 219/641 201/640 221/650
f 267/651 202/652 266/653
f 202/652 267/651 211/654
f 214/655 204/647 222/646
f 268/656 207/648 209/657
f 207/648 268/656 265/639
f 204/647 214/655 208/649
f 221/650 208/649 214/655
f 269/658 209/657 218/659
f 270/660 211/654 267/651
f 211/654 270/660 212/661
f 212/661 271/662 220/663
f 209/657 269/658 268/656
f 225/664 269/665 218/666
f 269/665 225/664 272/667
f 271/662 212/661 270/660
f 273/668 220/663 271/662
f 224/669 272/667 225/664
f 220/663 273/668 224/669
f 272/667 224/669 273/668
f 298 299
f 299 300
f 301 302
