# Blender MTL File: 'Museu.blend'
# Material Count: 5

newmtl material_0_16.004
Ns 90.196078
Ka 0.000000 0.000000 0.000000
Kd 0.228894 0.228894 0.228894
Ks 0.500000 0.500000 0.500000
Ni 1.000000
d 1.000000
illum 2
map_Kd texture0.png

newmtl material_1_16.004
Ns 90.196078
Ka 0.000000 0.000000 0.000000
Kd 0.409600 0.000000 0.000000
Ks 0.500000 0.500000 0.500000
Ni 1.000000
d 1.000000
illum 2
map_Kd texture0.png

newmtl material_2_16.004
Ns 90.196078
Ka 0.000000 0.000000 0.000000
Kd 0.512000 0.512000 0.512000
Ks 0.500000 0.500000 0.500000
Ni 1.000000
d 1.000000
illum 2
map_Kd texture0.png

newmtl material_3_16.004
Ns 90.196078
Ka 0.000000 0.000000 0.000000
Kd 0.060235 0.060235 0.060235
Ks 0.500000 0.500000 0.500000
Ni 1.000000
d 1.000000
illum 2
map_Kd texture0.png

newmtl material_4_16.004
Ns 90.196078
Ka 0.000000 0.000000 0.000000
Kd 0.200785 0.299169 0.475859
Ks 0.500000 0.500000 0.500000
Ni 1.000000
d 1.000000
illum 2
map_Kd texture0.png
