# Blender v2.66 (sub 1) OBJ File: 'Museu.blend'
# www.blender.org
mtllib Marc32.mtl
o Plane.001
v 29.317308 4.218276 14.897854
v 29.317307 0.384293 14.897855
v 30.514856 0.384289 12.488760
v 30.514858 4.218272 12.488758
v 29.289865 4.218276 14.884212
v 29.289864 0.384293 14.884212
v 30.487415 4.218272 12.475117
v 30.417723 3.860885 12.615314
v 29.359556 3.860887 14.744016
v 29.359556 0.741677 14.744016
v 30.417723 0.741674 12.615314
v 30.487413 0.384289 12.475118
v 29.376455 3.860887 14.752416
v 30.434622 3.860885 12.623713
v 30.434620 0.741674 12.623714
v 29.376453 0.741677 14.752416
vt 0.000000 0.000000
vt 1.000000 0.000000
vt 1.000000 1.000000
vt 0.000000 1.000000
usemtl Fusta.002
s off
f 1/1 2/2 3/3 4/4
f 2/1 1/2 5/3 6/4
f 5/1 7/2 8/3 9/4
f 10/1 6/2 5/3 9/4
f 11/1 12/2 6/3 10/4
f 7/1 12/2 11/3 8/4
f 12/1 7/2 4/3 3/4
f 2/1 6/2 12/3 3/4
f 5/1 1/2 4/3 7/4
f 13/1 14/2 15/3 16/4
f 9/1 13/2 16/3 10/4
f 11/1 15/2 14/3 8/4
f 10/1 16/2 15/3 11/4
f 8/1 14/2 13/3 9/4
