# Blender MTL File: 'Museu.blend'
# Material Count: 2

newmtl Fusta.019
Ns 86.274510
Ka 0.000000 0.000000 0.000000
Kd 0.327680 0.327680 0.327680
Ks 0.500000 0.500000 0.500000
Ni 1.000000
d 1.000000
illum 2
map_Kd C:\Users\Principal\Documents\My Dropbox\Grafics II\Blender\Models\Marc\images\texture0.jpg

newmtl Quadre.019
Ns 86.274510
Ka 0.000000 0.000000 0.000000
Kd 0.327680 0.327680 0.327680
Ks 0.500000 0.500000 0.500000
Ni 1.000000
d 1.000000
illum 2
map_Kd C:\Users\Principal\Documents\My Dropbox\Grafics II\Blender\Models\Marc\images\Quadre65.png
