# Blender MTL File: 'Museu.blend'
# Material Count: 2

newmtl Fusta.004
Ns 78.431373
Ka 0.000000 0.000000 0.000000
Kd 0.167772 0.167772 0.167772
Ks 0.500000 0.500000 0.500000
Ni 1.000000
d 1.000000
illum 2
map_Kd Imatges\texture0.jpg

newmtl Quadre.004
Ns 78.431373
Ka 0.000000 0.000000 0.000000
Kd 0.167772 0.167772 0.167772
Ks 0.500000 0.500000 0.500000
Ni 1.000000
d 1.000000
illum 2
map_Kd Imatges\Quadre41.png
