# Blender v2.66 (sub 1) OBJ File: 'Museu.blend'
# www.blender.org
mtllib Marc24.mtl
o Cube.002_Cube.018
v 10.959373 0.668113 26.157112
v 10.959376 3.663171 26.150568
v 10.959371 3.645449 21.673794
v 10.959368 0.650391 21.680336
vt 1.000000 0.000000
vt 1.000000 1.000000
vt 0.000000 1.000000
vt 0.000000 0.000000
usemtl Quadre.000
s off
f 1/1 2/2 3/3 4/4
o Cube.016
v 11.011184 4.019396 26.463652
v 11.011184 0.294169 26.463654
v 11.011179 0.294165 21.367249
v 11.011179 4.019392 21.367247
v 10.924264 4.019396 26.463652
v 10.924264 0.294169 26.463654
v 10.924257 4.019392 21.367247
v 10.924257 3.672143 21.663834
v 10.924264 3.672144 26.167068
v 10.924264 0.641417 26.167067
v 10.924257 0.641415 21.663834
v 10.924257 0.294165 21.367249
v 10.977783 3.672144 26.167068
v 10.977778 3.672143 21.663834
v 10.977778 0.641415 21.663834
v 10.977783 0.641417 26.167067
vt 0.000000 0.000000
vt 1.000000 0.000000
vt 1.000000 1.000000
vt 0.000000 1.000000
usemtl Fusta.000
s off
f 5/5 6/6 7/7 8/8
f 6/5 5/6 9/7 10/8
f 9/5 11/6 12/7 13/8
f 14/5 10/6 9/7 13/8
f 15/5 16/6 10/7 14/8
f 11/5 16/6 15/7 12/8
f 16/5 11/6 8/7 7/8
f 6/5 10/6 16/7 7/8
f 9/5 5/6 8/7 11/8
f 17/5 18/6 19/7 20/8
f 13/5 17/6 20/7 14/8
f 15/5 19/6 18/7 12/8
f 14/5 20/6 19/7 15/8
f 12/5 18/6 17/7 13/8
