# Blender MTL File: 'Museu.blend'
# Material Count: 1

newmtl Fusta.009
Ns 80.392157
Ka 0.000000 0.000000 0.000000
Kd 0.209715 0.209715 0.209715
Ks 0.500000 0.500000 0.500000
Ni 1.000000
d 1.000000
illum 2
map_Kd Imatges\texture0.jpg
