# Blender MTL File: 'None'
# Material Count: 1

newmtl Material.001
Ns 96.078431
Ka 0.000000 0.000000 0.000000
Kd 0.640000 0.640000 0.640000
Ks 0.500000 0.500000 0.500000
Ni 1.000000
d 1.000000
illum 2
map_Kd C:\\Users\\Principal\\Documents\\Videos\\ULTIMATE ASSASSIN_39_S CREED 3 SONG _Music Video_.flv
