# Blender v2.66 (sub 1) OBJ File: 'Museu.blend'
# www.blender.org
mtllib Quadre54.mtl
o Cube.008_Cube.030
v -8.098432 0.941088 -12.398556
v -8.098433 3.881800 -12.393075
v -8.098433 3.864396 -8.644372
v -8.098432 0.923684 -8.649853
vt 1.000000 0.000000
vt 1.000000 1.000000
vt 0.000000 1.000000
vt 0.000000 0.000000
usemtl Quadre.014
s off
f 1/1 2/2 3/3 4/4
