# Blender v2.66 (sub 1) OBJ File: 'Museu.blend'
# www.blender.org
mtllib Quadre33.mtl
o Plane.003
v 21.756268 0.702176 -3.533664
v 21.752653 4.033220 -3.531578
v 19.279896 4.013507 -2.104286
v 19.283510 0.682462 -2.106373
vt 1.000000 0.000000
vt 1.000000 1.000000
vt 0.000000 1.000000
vt 0.000000 0.000000
usemtl Quadre.003
s off
f 1/1 2/2 3/3 4/4
