# Blender MTL File: 'Museu.blend'
# Material Count: 1

newmtl Quadre.000_.\Imatges\Quadre21.png.001_.\Imatges\Quadre21.png
Ns 76.470588
Ka 0.000000 0.000000 0.000000
Kd 0.134218 0.134218 0.134218
Ks 0.500000 0.500000 0.500000
Ni 1.000000
d 1.000000
illum 2
map_Kd Imatges\Quadre21.png
