# Blender MTL File: 'Museu.blend'
# Material Count: 5
newmtl material0_texFlors.jpg_texFlors.jpg
Ns 33.333333
Ka 0.000000 0.000000 0.000000
Kd 0.409600 0.244957 0.244957
Ks 0.165000 0.165000 0.165000
Ni 1.000000
d 1.000000
illum 2
map_Kd Imatges/texFlors.jpg


newmtl material1_texFlors.jpg_texFlors.jpg
Ns 33.333333
Ka 0.000000 0.000000 0.000000
Kd 0.512000 0.512000 0.307200
Ks 0.165000 0.165000 0.165000
Ni 1.000000
d 1.000000
illum 2
map_Kd Imatges/texFlors.jpg


newmtl material2_texFlors.jpg_texFlors.jpg
Ns 33.333333
Ka 0.000000 0.000000 0.000000
Kd 0.244957 0.307200 0.182714
Ks 0.165000 0.165000 0.165000
Ni 1.000000
d 1.000000
illum 2
map_Kd Imatges/texFlors.jpg


newmtl material3_texFlors.jpg_texFlors.jpg
Ns 33.333333
Ka 0.000000 0.000000 0.000000
Kd 0.397554 0.397554 0.397554
Ks 0.165000 0.165000 0.165000
Ni 1.000000
d 1.000000
illum 2
map_Kd Imatges/texFlors.jpg


newmtl material4_texFlors.jpg_texFlors.jpg
Ns 33.333333
Ka 0.000000 0.000000 0.000000
Kd 0.244957 0.409600 0.409600
Ks 0.165000 0.165000 0.165000
Ni 1.000000
d 1.000000
illum 2
map_Kd Imatges/texFlors.jpg


