# Blender MTL File: 'Museu.blend'
# Material Count: 2
newmtl _01_-_Default1noCulling_daurat.jpg_daurat.jpg.002
Ns 33.333333
Ka 0.000000 0.000000 0.000000
Kd 0.451765 0.305192 0.030118
Ks 0.165000 0.165000 0.165000
Ni 1.000000
d 1.000000
illum 2
map_Kd Imatges/daurat.jpg


newmtl _02_-_Default1noCulling_daurat.jpg_daurat.jpg.002
Ns 33.333333
Ka 0.000000 0.000000 0.000000
Kd 0.411608 0.333302 0.056219
Ks 0.165000 0.165000 0.165000
Ni 1.000000
d 1.000000
illum 2
map_Kd Imatges/daurat.jpg


