# Blender MTL File: 'Museu.blend'
# Material Count: 1
newmtl material_0_2_0_C:\Users\Joan\Dropbox\Grafics_II\Blender\Models\_texture0.jpg.001
Ns 90.196078
Ka 0.000000 0.000000 0.000000
Kd 0.409600 0.409600 0.409600
Ks 0.500000 0.500000 0.500000
Ni 1.000000
d 1.000000
illum 2
map_Kd Imatges/texture0.jpg


