# Blender MTL File: 'Museu.blend'
# Material Count: 2

newmtl FrontColorNoCulling.020
Ns 27.450980
Ka 0.000000 0.000000 0.000000
Kd 0.327680 0.327680 0.327680
Ks 0.165000 0.165000 0.165000
Ni 1.000000
d 1.000000
illum 2
map_Kd Imatges\\llum.jpg

newmtl FrontColorNoCulling.021
Ns 27.450980
Ka 0.000000 0.000000 0.000000
Kd 0.327680 0.327680 0.327680
Ks 0.165000 0.165000 0.165000
Ni 1.000000
d 1.000000
illum 2
map_Kd C:\tmp\llums\Imatges\texturaMetall.jpg
