# Blender MTL File: 'Museu.blend'
# Material Count: 1

newmtl FrontColorNoCulling.034
Ns 27.450980
Ka 0.000000 0.000000 0.000000
Kd 0.327680 0.327680 0.327680
Ks 0.165000 0.165000 0.165000
Ni 1.000000
d 1.000000
illum 2
map_Kd C:\tmp\llums\Imatges\llum.jpg
